%YAML 1.1
%TAG !u! tag:unity3d.com,2011:
--- !u!114 &11400000
MonoBehaviour:
  m_ObjectHideFlags: 0
  m_CorrespondingSourceObject: {fileID: 0}
  m_PrefabInstance: {fileID: 0}
  m_PrefabAsset: {fileID: 0}
  m_GameObject: {fileID: 0}
  m_Enabled: 1
  m_EditorHideFlags: 0
  m_Script: {fileID: 11500000, guid: 5b11a58205ec3474ca216360e9fa74a8, type: 3}
  m_Name: UI Misc Shared Data
  m_EditorClassIdentifier: 
  m_TableCollectionName: UI Misc
  m_TableCollectionNameGuidString: 0e0febe6907020e4c99f3d3f114dba9a
  m_Entries:
  - m_Id: 87395799040
    m_Key: Quit_Popup_Title
    m_Metadata:
      m_Items: []
  - m_Id: 110779043840
    m_Key: Quit_Popup_Description
    m_Metadata:
      m_Items: []
  - m_Id: 127212326912
    m_Key: StartGame_Buttom
    m_Metadata:
      m_Items: []
  - m_Id: 236096458752
    m_Key: Confirm_Quit
    m_Metadata:
      m_Items: []
  - m_Id: 255381868544
    m_Key: Cancel_Quit
    m_Metadata:
      m_Items: []
  - m_Id: 283613728768
    m_Key: Pause
    m_Metadata:
      m_Items: []
  - m_Id: 315570130944
    m_Key: Pause_Description
    m_Metadata:
      m_Items: []
  - m_Id: 333748244480
    m_Key: Unpause
    m_Metadata:
      m_Items: []
  - m_Id: 4912053358592
    m_Key: Shop_Buttom
    m_Metadata:
      m_Items: []
  - m_Id: 5158552604672
    m_Key: Settings_Buttom
    m_Metadata:
      m_Items: []
  - m_Id: 5244112211968
    m_Key: Exit_Buttom
    m_Metadata:
      m_Items: []
  m_Metadata:
    m_Items: []
  m_KeyGenerator:
    id: 0
  references:
    version: 1
    00000000:
      type: {class: DistributedUIDGenerator, ns: UnityEngine.Localization.Tables, asm: Unity.Localization}
      data:
        m_CustomEpoch: 1633644417042
