%YAML 1.1
%TAG !u! tag:unity3d.com,2011:
--- !u!1 &6598857572002110080
GameObject:
  m_ObjectHideFlags: 0
  m_CorrespondingSourceObject: {fileID: 0}
  m_PrefabInstance: {fileID: 0}
  m_PrefabAsset: {fileID: 0}
  serializedVersion: 6
  m_Component:
  - component: {fileID: 6598857572001941154}
  - component: {fileID: 6598857571996899206}
  m_Layer: 7
  m_Name: Battle Spider
  m_TagString: Untagged
  m_Icon: {fileID: 0}
  m_NavMeshLayer: 0
  m_StaticEditorFlags: 0
  m_IsActive: 1
--- !u!4 &6598857572001941154
Transform:
  m_ObjectHideFlags: 0
  m_CorrespondingSourceObject: {fileID: 0}
  m_PrefabInstance: {fileID: 0}
  m_PrefabAsset: {fileID: 0}
  m_GameObject: {fileID: 6598857572002110080}
  m_LocalRotation: {x: -0.7071068, y: 0, z: -0, w: 0.7071068}
  m_LocalPosition: {x: -0, y: 0, z: 0}
  m_LocalScale: {x: 1, y: 1, z: 1}
  m_Children: []
  m_Father: {fileID: 6598857572001941152}
  m_RootOrder: 1
  m_LocalEulerAnglesHint: {x: 0, y: 0, z: 0}
--- !u!137 &6598857571996899206
SkinnedMeshRenderer:
  m_ObjectHideFlags: 0
  m_CorrespondingSourceObject: {fileID: 0}
  m_PrefabInstance: {fileID: 0}
  m_PrefabAsset: {fileID: 0}
  m_GameObject: {fileID: 6598857572002110080}
  m_Enabled: 1
  m_CastShadows: 1
  m_ReceiveShadows: 1
  m_DynamicOccludee: 1
  m_MotionVectors: 1
  m_LightProbeUsage: 1
  m_ReflectionProbeUsage: 1
  m_RayTracingMode: 3
  m_RayTraceProcedural: 0
  m_RenderingLayerMask: 1
  m_RendererPriority: 0
  m_Materials:
  - {fileID: 2100000, guid: 5cd5e96723260dc44bba129cbc9a6786, type: 2}
  m_StaticBatchInfo:
    firstSubMesh: 0
    subMeshCount: 0
  m_StaticBatchRoot: {fileID: 0}
  m_ProbeAnchor: {fileID: 0}
  m_LightProbeVolumeOverride: {fileID: 0}
  m_ScaleInLightmap: 1
  m_ReceiveGI: 1
  m_PreserveUVs: 0
  m_IgnoreNormalsForChartDetection: 0
  m_ImportantGI: 0
  m_StitchLightmapSeams: 0
  m_SelectedEditorRenderState: 3
  m_MinimumChartSize: 4
  m_AutoUVMaxDistance: 0.5
  m_AutoUVMaxAngle: 89
  m_LightmapParameters: {fileID: 0}
  m_SortingLayerID: 0
  m_SortingLayer: 0
  m_SortingOrder: 0
  serializedVersion: 2
  m_Quality: 0
  m_UpdateWhenOffscreen: 0
  m_SkinnedMotionVectors: 1
  m_Mesh: {fileID: 4300000, guid: b242000de832a0e43ae4860f64e5ff3f, type: 3}
  m_Bones:
  - {fileID: 6598857572001941208}
  - {fileID: 6598857572001941136}
  - {fileID: 6598857572001941124}
  - {fileID: 6598857572001941210}
  - {fileID: 6598857572001941126}
  - {fileID: 6598857572001941172}
  - {fileID: 6598857572001941166}
  - {fileID: 6598857572001941204}
  - {fileID: 6598857572001941240}
  - {fileID: 6598857572001941164}
  - {fileID: 6598857572001941174}
  - {fileID: 6598857572001941160}
  - {fileID: 6598857572001941128}
  - {fileID: 6598857572001941132}
  - {fileID: 6598857572001941120}
  - {fileID: 6598857572001941220}
  - {fileID: 6598857572001941144}
  - {fileID: 6598857572001941148}
  - {fileID: 6598857572001941232}
  - {fileID: 6598857572001941236}
  - {fileID: 6598857572001941224}
  - {fileID: 6598857572001941228}
  - {fileID: 6598857572001941150}
  - {fileID: 6598857572001941122}
  - {fileID: 6598857572001941176}
  - {fileID: 6598857572001941202}
  - {fileID: 6598857572001941190}
  - {fileID: 6598857572001941168}
  - {fileID: 6598857572001941178}
  - {fileID: 6598857572001941180}
  - {fileID: 6598857572001941142}
  - {fileID: 6598857572001941130}
  - {fileID: 6598857572001941134}
  - {fileID: 6598857572001941218}
  - {fileID: 6598857572001941222}
  - {fileID: 6598857572001941146}
  - {fileID: 6598857572001941246}
  - {fileID: 6598857572001941234}
  - {fileID: 6598857572001941238}
  - {fileID: 6598857572001941226}
  - {fileID: 6598857572001941284}
  - {fileID: 6598857572001941170}
  - {fileID: 6598857572001941162}
  - {fileID: 6598857572001941182}
  m_BlendShapeWeights: []
  m_RootBone: {fileID: 6598857572001941166}
  m_AABB:
    m_Center: {x: 0.030440003, y: -0.048712432, z: 0.0055474043}
    m_Extent: {x: 0.33308873, y: 0.53002137, z: 0.5870564}
  m_DirtyAABB: 0
--- !u!1 &6598857572002110082
GameObject:
  m_ObjectHideFlags: 0
  m_CorrespondingSourceObject: {fileID: 0}
  m_PrefabInstance: {fileID: 0}
  m_PrefabAsset: {fileID: 0}
  serializedVersion: 6
  m_Component:
  - component: {fileID: 6598857572001941152}
  - component: {fileID: 6598857571992627526}
  - component: {fileID: 4399667700479252320}
  - component: {fileID: -7213708622562125194}
  - component: {fileID: -7618560216600011845}
  - component: {fileID: 495959868275293546}
  - component: {fileID: 2549800989569377992}
  m_Layer: 7
  m_Name: Spider
  m_TagString: Untagged
  m_Icon: {fileID: 0}
  m_NavMeshLayer: 0
  m_StaticEditorFlags: 0
  m_IsActive: 1
--- !u!4 &6598857572001941152
Transform:
  m_ObjectHideFlags: 0
  m_CorrespondingSourceObject: {fileID: 0}
  m_PrefabInstance: {fileID: 0}
  m_PrefabAsset: {fileID: 0}
  m_GameObject: {fileID: 6598857572002110082}
  m_LocalRotation: {x: 0, y: 0, z: 0, w: 1}
  m_LocalPosition: {x: 0, y: 0, z: 0}
  m_LocalScale: {x: 2, y: 2, z: 2}
  m_Children:
  - {fileID: 6598857572001941156}
  - {fileID: 6598857572001941154}
  m_Father: {fileID: 0}
  m_RootOrder: 0
  m_LocalEulerAnglesHint: {x: 0, y: 0, z: 0}
--- !u!95 &6598857571992627526
Animator:
  serializedVersion: 3
  m_ObjectHideFlags: 0
  m_CorrespondingSourceObject: {fileID: 0}
  m_PrefabInstance: {fileID: 0}
  m_PrefabAsset: {fileID: 0}
  m_GameObject: {fileID: 6598857572002110082}
  m_Enabled: 1
  m_Avatar: {fileID: 9000000, guid: b242000de832a0e43ae4860f64e5ff3f, type: 3}
  m_Controller: {fileID: 9100000, guid: 1b15918c7e69d5540bc8551e62606232, type: 2}
  m_CullingMode: 1
  m_UpdateMode: 0
  m_ApplyRootMotion: 0
  m_LinearVelocityBlending: 0
  m_WarningMessage: 
  m_HasTransformHierarchy: 1
  m_AllowConstantClipSamplingOptimization: 1
  m_KeepAnimatorControllerStateOnDisable: 0
--- !u!195 &4399667700479252320
NavMeshAgent:
  m_ObjectHideFlags: 0
  m_CorrespondingSourceObject: {fileID: 0}
  m_PrefabInstance: {fileID: 0}
  m_PrefabAsset: {fileID: 0}
  m_GameObject: {fileID: 6598857572002110082}
  m_Enabled: 1
  m_AgentTypeID: 0
  m_Radius: 0.5
  m_Speed: 3.5
  m_Acceleration: 8
  avoidancePriority: 50
  m_AngularSpeed: 120
  m_StoppingDistance: 2
  m_AutoTraverseOffMeshLink: 1
  m_AutoBraking: 1
  m_AutoRepath: 1
  m_Height: 0.5
  m_BaseOffset: 0
  m_WalkableMask: 4294967295
  m_ObstacleAvoidanceType: 4
--- !u!114 &-7213708622562125194
MonoBehaviour:
  m_ObjectHideFlags: 0
  m_CorrespondingSourceObject: {fileID: 0}
  m_PrefabInstance: {fileID: 0}
  m_PrefabAsset: {fileID: 0}
  m_GameObject: {fileID: 6598857572002110082}
  m_Enabled: 1
  m_EditorHideFlags: 0
  m_Script: {fileID: 11500000, guid: 51081bb3b51c70f49b036b9a22f0cad4, type: 3}
  m_Name: 
  m_EditorClassIdentifier: 
--- !u!114 &-7618560216600011845
MonoBehaviour:
  m_ObjectHideFlags: 0
  m_CorrespondingSourceObject: {fileID: 0}
  m_PrefabInstance: {fileID: 0}
  m_PrefabAsset: {fileID: 0}
  m_GameObject: {fileID: 6598857572002110082}
  m_Enabled: 1
  m_EditorHideFlags: 0
  m_Script: {fileID: 11500000, guid: 574bbd2b53562994a897d2252fb3cc06, type: 3}
  m_Name: 
  m_EditorClassIdentifier: 
  _stats: {fileID: 11400000, guid: 8992b451086f66941a11bdab497bd8c5, type: 2}
--- !u!135 &495959868275293546
SphereCollider:
  m_ObjectHideFlags: 0
  m_CorrespondingSourceObject: {fileID: 0}
  m_PrefabInstance: {fileID: 0}
  m_PrefabAsset: {fileID: 0}
  m_GameObject: {fileID: 6598857572002110082}
  m_Material: {fileID: 0}
  m_IsTrigger: 0
  m_Enabled: 1
  serializedVersion: 2
  m_Radius: 0.5
  m_Center: {x: 0, y: 0.15, z: -0.1}
--- !u!54 &2549800989569377992
Rigidbody:
  m_ObjectHideFlags: 0
  m_CorrespondingSourceObject: {fileID: 0}
  m_PrefabInstance: {fileID: 0}
  m_PrefabAsset: {fileID: 0}
  m_GameObject: {fileID: 6598857572002110082}
  serializedVersion: 2
  m_Mass: 1
  m_Drag: 0
  m_AngularDrag: 0.05
  m_UseGravity: 1
  m_IsKinematic: 0
  m_Interpolate: 0
  m_Constraints: 0
  m_CollisionDetection: 0
--- !u!1 &6598857572002110084
GameObject:
  m_ObjectHideFlags: 0
  m_CorrespondingSourceObject: {fileID: 0}
  m_PrefabInstance: {fileID: 0}
  m_PrefabAsset: {fileID: 0}
  serializedVersion: 6
  m_Component:
  - component: {fileID: 6598857572001941156}
  m_Layer: 7
  m_Name: b_Root
  m_TagString: Untagged
  m_Icon: {fileID: 0}
  m_NavMeshLayer: 0
  m_StaticEditorFlags: 0
  m_IsActive: 1
--- !u!4 &6598857572001941156
Transform:
  m_ObjectHideFlags: 0
  m_CorrespondingSourceObject: {fileID: 0}
  m_PrefabInstance: {fileID: 0}
  m_PrefabAsset: {fileID: 0}
  m_GameObject: {fileID: 6598857572002110084}
  m_LocalRotation: {x: -0.5, y: 0.5, z: 0.5, w: 0.5}
  m_LocalPosition: {x: -0, y: 0, z: 0}
  m_LocalScale: {x: 1, y: 1, z: 1}
  m_Children:
  - {fileID: 6598857572001941158}
  m_Father: {fileID: 6598857572001941152}
  m_RootOrder: 0
  m_LocalEulerAnglesHint: {x: 0, y: 0, z: 0}
--- !u!1 &6598857572002110086
GameObject:
  m_ObjectHideFlags: 0
  m_CorrespondingSourceObject: {fileID: 0}
  m_PrefabInstance: {fileID: 0}
  m_PrefabAsset: {fileID: 0}
  serializedVersion: 6
  m_Component:
  - component: {fileID: 6598857572001941158}
  m_Layer: 7
  m_Name: b_BipRot
  m_TagString: Untagged
  m_Icon: {fileID: 0}
  m_NavMeshLayer: 0
  m_StaticEditorFlags: 0
  m_IsActive: 1
--- !u!4 &6598857572001941158
Transform:
  m_ObjectHideFlags: 0
  m_CorrespondingSourceObject: {fileID: 0}
  m_PrefabInstance: {fileID: 0}
  m_PrefabAsset: {fileID: 0}
  m_GameObject: {fileID: 6598857572002110086}
  m_LocalRotation: {x: 0, y: -0, z: -0, w: 1}
  m_LocalPosition: {x: 2.462299e-16, y: 0, z: 0}
  m_LocalScale: {x: 1, y: 1, z: 1}
  m_Children:
  - {fileID: 6598857572001941166}
  - {fileID: 6598857572001941280}
  m_Father: {fileID: 6598857572001941156}
  m_RootOrder: 0
  m_LocalEulerAnglesHint: {x: 0, y: 0, z: 0}
--- !u!1 &6598857572002110088
GameObject:
  m_ObjectHideFlags: 0
  m_CorrespondingSourceObject: {fileID: 0}
  m_PrefabInstance: {fileID: 0}
  m_PrefabAsset: {fileID: 0}
  serializedVersion: 6
  m_Component:
  - component: {fileID: 6598857572001941160}
  m_Layer: 7
  m_Name: Bip01-L-Forearm
  m_TagString: Untagged
  m_Icon: {fileID: 0}
  m_NavMeshLayer: 0
  m_StaticEditorFlags: 0
  m_IsActive: 1
--- !u!4 &6598857572001941160
Transform:
  m_ObjectHideFlags: 0
  m_CorrespondingSourceObject: {fileID: 0}
  m_PrefabInstance: {fileID: 0}
  m_PrefabAsset: {fileID: 0}
  m_GameObject: {fileID: 6598857572002110088}
  m_LocalRotation: {x: 0.00002076203, y: 0.000034646728, z: 0.5246362, w: 0.8513265}
  m_LocalPosition: {x: -0.2089479, y: -0.000000114440915, z: -0.000000057220458}
  m_LocalScale: {x: 1, y: 1, z: 1}
  m_Children:
  - {fileID: 6598857572001941174}
  m_Father: {fileID: 6598857572001941172}
  m_RootOrder: 0
  m_LocalEulerAnglesHint: {x: 0, y: 0, z: 0}
--- !u!1 &6598857572002110090
GameObject:
  m_ObjectHideFlags: 0
  m_CorrespondingSourceObject: {fileID: 0}
  m_PrefabInstance: {fileID: 0}
  m_PrefabAsset: {fileID: 0}
  serializedVersion: 6
  m_Component:
  - component: {fileID: 6598857572001941162}
  m_Layer: 7
  m_Name: Bip01-L-Finger01
  m_TagString: Untagged
  m_Icon: {fileID: 0}
  m_NavMeshLayer: 0
  m_StaticEditorFlags: 0
  m_IsActive: 1
--- !u!4 &6598857572001941162
Transform:
  m_ObjectHideFlags: 0
  m_CorrespondingSourceObject: {fileID: 0}
  m_PrefabInstance: {fileID: 0}
  m_PrefabAsset: {fileID: 0}
  m_GameObject: {fileID: 6598857572002110090}
  m_LocalRotation: {x: 0.00000012856584, y: 0.00000022889168, z: -0.07977569, w: 0.9968129}
  m_LocalPosition: {x: -0.25402722, y: -0.000000038146972, z: 0.000000095367426}
  m_LocalScale: {x: 1, y: 1, z: 1}
  m_Children: []
  m_Father: {fileID: 6598857572001941164}
  m_RootOrder: 0
  m_LocalEulerAnglesHint: {x: 0, y: 0, z: 0}
--- !u!1 &6598857572002110092
GameObject:
  m_ObjectHideFlags: 0
  m_CorrespondingSourceObject: {fileID: 0}
  m_PrefabInstance: {fileID: 0}
  m_PrefabAsset: {fileID: 0}
  serializedVersion: 6
  m_Component:
  - component: {fileID: 6598857572001941164}
  m_Layer: 7
  m_Name: Bip01-L-Finger0
  m_TagString: Untagged
  m_Icon: {fileID: 0}
  m_NavMeshLayer: 0
  m_StaticEditorFlags: 0
  m_IsActive: 1
--- !u!4 &6598857572001941164
Transform:
  m_ObjectHideFlags: 0
  m_CorrespondingSourceObject: {fileID: 0}
  m_PrefabInstance: {fileID: 0}
  m_PrefabAsset: {fileID: 0}
  m_GameObject: {fileID: 6598857572002110092}
  m_LocalRotation: {x: -0.0006786239, y: 0.0015718841, z: 0.3978651, w: 0.9174423}
  m_LocalPosition: {x: -0.18403037, y: 0.0000003814697, z: -0.00000010967254}
  m_LocalScale: {x: 1, y: 1, z: 1}
  m_Children:
  - {fileID: 6598857572001941162}
  m_Father: {fileID: 6598857572001941174}
  m_RootOrder: 0
  m_LocalEulerAnglesHint: {x: 0, y: 0, z: 0}
--- !u!1 &6598857572002110094
GameObject:
  m_ObjectHideFlags: 0
  m_CorrespondingSourceObject: {fileID: 0}
  m_PrefabInstance: {fileID: 0}
  m_PrefabAsset: {fileID: 0}
  serializedVersion: 6
  m_Component:
  - component: {fileID: 6598857572001941166}
  m_Layer: 7
  m_Name: Bip01
  m_TagString: Untagged
  m_Icon: {fileID: 0}
  m_NavMeshLayer: 0
  m_StaticEditorFlags: 0
  m_IsActive: 1
--- !u!4 &6598857572001941166
Transform:
  m_ObjectHideFlags: 0
  m_CorrespondingSourceObject: {fileID: 0}
  m_PrefabInstance: {fileID: 0}
  m_PrefabAsset: {fileID: 0}
  m_GameObject: {fileID: 6598857572002110094}
  m_LocalRotation: {x: 0.5079966, y: -0.49187335, z: 0.49187434, w: 0.5079958}
  m_LocalPosition: {x: -3.3881317e-23, y: -0.00000001, z: 0.2452846}
  m_LocalScale: {x: 1, y: 1, z: 1}
  m_Children:
  - {fileID: 6598857572001941126}
  - {fileID: 6598857572001941210}
  - {fileID: 6598857572001941284}
  m_Father: {fileID: 6598857572001941158}
  m_RootOrder: 0
  m_LocalEulerAnglesHint: {x: 0, y: 0, z: 0}
--- !u!1 &6598857572002110096
GameObject:
  m_ObjectHideFlags: 0
  m_CorrespondingSourceObject: {fileID: 0}
  m_PrefabInstance: {fileID: 0}
  m_PrefabAsset: {fileID: 0}
  serializedVersion: 6
  m_Component:
  - component: {fileID: 6598857572001941168}
  m_Layer: 7
  m_Name: Bip01-R-Finger0
  m_TagString: Untagged
  m_Icon: {fileID: 0}
  m_NavMeshLayer: 0
  m_StaticEditorFlags: 0
  m_IsActive: 1
--- !u!4 &6598857572001941168
Transform:
  m_ObjectHideFlags: 0
  m_CorrespondingSourceObject: {fileID: 0}
  m_PrefabInstance: {fileID: 0}
  m_PrefabAsset: {fileID: 0}
  m_GameObject: {fileID: 6598857572002110096}
  m_LocalRotation: {x: 0.0006892694, y: 0.0015596645, z: -0.4058138, w: 0.9139542}
  m_LocalPosition: {x: -0.18403046, y: -0.00000022888183, z: -0.000000038146972}
  m_LocalScale: {x: 1, y: 1, z: 1}
  m_Children:
  - {fileID: 6598857572001941182}
  m_Father: {fileID: 6598857572001941178}
  m_RootOrder: 0
  m_LocalEulerAnglesHint: {x: 0, y: 0, z: 0}
--- !u!1 &6598857572002110098
GameObject:
  m_ObjectHideFlags: 0
  m_CorrespondingSourceObject: {fileID: 0}
  m_PrefabInstance: {fileID: 0}
  m_PrefabAsset: {fileID: 0}
  serializedVersion: 6
  m_Component:
  - component: {fileID: 6598857572001941170}
  m_Layer: 7
  m_Name: Bip01-Neck
  m_TagString: Untagged
  m_Icon: {fileID: 0}
  m_NavMeshLayer: 0
  m_StaticEditorFlags: 0
  m_IsActive: 1
--- !u!4 &6598857572001941170
Transform:
  m_ObjectHideFlags: 0
  m_CorrespondingSourceObject: {fileID: 0}
  m_PrefabInstance: {fileID: 0}
  m_PrefabAsset: {fileID: 0}
  m_GameObject: {fileID: 6598857572002110098}
  m_LocalRotation: {x: -0.00000006144593, y: 0.000000015419817, z: 0.18652421, w: 0.98245037}
  m_LocalPosition: {x: -0.14820647, y: 0.000000114440915, z: -0.000000014547158}
  m_LocalScale: {x: 1, y: 1, z: 1}
  m_Children:
  - {fileID: 6598857572001941212}
  - {fileID: 6598857572001941294}
  m_Father: {fileID: 6598857572001941126}
  m_RootOrder: 1
  m_LocalEulerAnglesHint: {x: 0, y: 0, z: 0}
--- !u!1 &6598857572002110100
GameObject:
  m_ObjectHideFlags: 0
  m_CorrespondingSourceObject: {fileID: 0}
  m_PrefabInstance: {fileID: 0}
  m_PrefabAsset: {fileID: 0}
  serializedVersion: 6
  m_Component:
  - component: {fileID: 6598857572001941172}
  m_Layer: 7
  m_Name: Bip01-L-UpperArm
  m_TagString: Untagged
  m_Icon: {fileID: 0}
  m_NavMeshLayer: 0
  m_StaticEditorFlags: 0
  m_IsActive: 1
--- !u!4 &6598857572001941172
Transform:
  m_ObjectHideFlags: 0
  m_CorrespondingSourceObject: {fileID: 0}
  m_PrefabInstance: {fileID: 0}
  m_PrefabAsset: {fileID: 0}
  m_GameObject: {fileID: 6598857572002110100}
  m_LocalRotation: {x: 0.122073755, y: -0.3875263, z: -0.46502838, w: 0.78655577}
  m_LocalPosition: {x: -0.1219741, y: -0.0075009153, z: -0.0930059}
  m_LocalScale: {x: 1, y: 1, z: 1}
  m_Children:
  - {fileID: 6598857572001941160}
  m_Father: {fileID: 6598857572001941126}
  m_RootOrder: 0
  m_LocalEulerAnglesHint: {x: 0, y: 0, z: 0}
--- !u!1 &6598857572002110102
GameObject:
  m_ObjectHideFlags: 0
  m_CorrespondingSourceObject: {fileID: 0}
  m_PrefabInstance: {fileID: 0}
  m_PrefabAsset: {fileID: 0}
  serializedVersion: 6
  m_Component:
  - component: {fileID: 6598857572001941174}
  m_Layer: 7
  m_Name: Bip01-L-Hand
  m_TagString: Untagged
  m_Icon: {fileID: 0}
  m_NavMeshLayer: 0
  m_StaticEditorFlags: 0
  m_IsActive: 1
--- !u!4 &6598857572001941174
Transform:
  m_ObjectHideFlags: 0
  m_CorrespondingSourceObject: {fileID: 0}
  m_PrefabInstance: {fileID: 0}
  m_PrefabAsset: {fileID: 0}
  m_GameObject: {fileID: 6598857572002110102}
  m_LocalRotation: {x: 0.000055091474, y: 0.00003192167, z: 0.45039, w: 0.8928319}
  m_LocalPosition: {x: -0.1696086, y: 0.00000015258789, z: -0.000000023841856}
  m_LocalScale: {x: 1, y: 1, z: 1}
  m_Children:
  - {fileID: 6598857572001941164}
  m_Father: {fileID: 6598857572001941160}
  m_RootOrder: 0
  m_LocalEulerAnglesHint: {x: 0, y: 0, z: 0}
--- !u!1 &6598857572002110104
GameObject:
  m_ObjectHideFlags: 0
  m_CorrespondingSourceObject: {fileID: 0}
  m_PrefabInstance: {fileID: 0}
  m_PrefabAsset: {fileID: 0}
  serializedVersion: 6
  m_Component:
  - component: {fileID: 6598857572001941176}
  m_Layer: 7
  m_Name: Bip01-R-UpperArm
  m_TagString: Untagged
  m_Icon: {fileID: 0}
  m_NavMeshLayer: 0
  m_StaticEditorFlags: 0
  m_IsActive: 1
--- !u!4 &6598857572001941176
Transform:
  m_ObjectHideFlags: 0
  m_CorrespondingSourceObject: {fileID: 0}
  m_PrefabInstance: {fileID: 0}
  m_PrefabAsset: {fileID: 0}
  m_GameObject: {fileID: 6598857572002110104}
  m_LocalRotation: {x: 0.7804196, y: -0.46446836, z: -0.39523065, w: 0.13786642}
  m_LocalPosition: {x: -0.12197417, y: -0.007500858, z: 0.09646978}
  m_LocalScale: {x: 1, y: 1, z: 1}
  m_Children:
  - {fileID: 6598857572001941180}
  m_Father: {fileID: 6598857572001941126}
  m_RootOrder: 2
  m_LocalEulerAnglesHint: {x: 0, y: 0, z: 0}
--- !u!1 &6598857572002110106
GameObject:
  m_ObjectHideFlags: 0
  m_CorrespondingSourceObject: {fileID: 0}
  m_PrefabInstance: {fileID: 0}
  m_PrefabAsset: {fileID: 0}
  serializedVersion: 6
  m_Component:
  - component: {fileID: 6598857572001941178}
  m_Layer: 7
  m_Name: Bip01-R-Hand
  m_TagString: Untagged
  m_Icon: {fileID: 0}
  m_NavMeshLayer: 0
  m_StaticEditorFlags: 0
  m_IsActive: 1
--- !u!4 &6598857572001941178
Transform:
  m_ObjectHideFlags: 0
  m_CorrespondingSourceObject: {fileID: 0}
  m_PrefabInstance: {fileID: 0}
  m_PrefabAsset: {fileID: 0}
  m_GameObject: {fileID: 6598857572002110106}
  m_LocalRotation: {x: -0.00007676795, y: 0.00004549751, z: -0.46025804, w: 0.8877852}
  m_LocalPosition: {x: -0.16960867, y: 0.000000038146972, z: 0.00000012874602}
  m_LocalScale: {x: 1, y: 1, z: 1}
  m_Children:
  - {fileID: 6598857572001941168}
  m_Father: {fileID: 6598857572001941180}
  m_RootOrder: 0
  m_LocalEulerAnglesHint: {x: 0, y: 0, z: 0}
--- !u!1 &6598857572002110108
GameObject:
  m_ObjectHideFlags: 0
  m_CorrespondingSourceObject: {fileID: 0}
  m_PrefabInstance: {fileID: 0}
  m_PrefabAsset: {fileID: 0}
  serializedVersion: 6
  m_Component:
  - component: {fileID: 6598857572001941180}
  m_Layer: 7
  m_Name: Bip01-R-Forearm
  m_TagString: Untagged
  m_Icon: {fileID: 0}
  m_NavMeshLayer: 0
  m_StaticEditorFlags: 0
  m_IsActive: 1
--- !u!4 &6598857572001941180
Transform:
  m_ObjectHideFlags: 0
  m_CorrespondingSourceObject: {fileID: 0}
  m_PrefabInstance: {fileID: 0}
  m_PrefabAsset: {fileID: 0}
  m_GameObject: {fileID: 6598857572002110108}
  m_LocalRotation: {x: -0.000028906448, y: 0.000049117425, z: -0.5311981, w: 0.8472477}
  m_LocalPosition: {x: -0.20894796, y: 0.000000076293944, z: 0}
  m_LocalScale: {x: 1, y: 1, z: 1}
  m_Children:
  - {fileID: 6598857572001941178}
  m_Father: {fileID: 6598857572001941176}
  m_RootOrder: 0
  m_LocalEulerAnglesHint: {x: 0, y: 0, z: 0}
--- !u!1 &6598857572002110110
GameObject:
  m_ObjectHideFlags: 0
  m_CorrespondingSourceObject: {fileID: 0}
  m_PrefabInstance: {fileID: 0}
  m_PrefabAsset: {fileID: 0}
  serializedVersion: 6
  m_Component:
  - component: {fileID: 6598857572001941182}
  m_Layer: 7
  m_Name: Bip01-R-Finger01
  m_TagString: Untagged
  m_Icon: {fileID: 0}
  m_NavMeshLayer: 0
  m_StaticEditorFlags: 0
  m_IsActive: 1
--- !u!4 &6598857572001941182
Transform:
  m_ObjectHideFlags: 0
  m_CorrespondingSourceObject: {fileID: 0}
  m_PrefabInstance: {fileID: 0}
  m_PrefabAsset: {fileID: 0}
  m_GameObject: {fileID: 6598857572002110110}
  m_LocalRotation: {x: 0.00000019109619, y: 0.000000023011108, z: 0.082370564, w: 0.99660176}
  m_LocalPosition: {x: -0.25402737, y: 0.00000022888183, z: 0.0000001001358}
  m_LocalScale: {x: 1, y: 1, z: 1}
  m_Children: []
  m_Father: {fileID: 6598857572001941168}
  m_RootOrder: 0
  m_LocalEulerAnglesHint: {x: 0, y: 0, z: 0}
--- !u!1 &6598857572002110144
GameObject:
  m_ObjectHideFlags: 0
  m_CorrespondingSourceObject: {fileID: 0}
  m_PrefabInstance: {fileID: 0}
  m_PrefabAsset: {fileID: 0}
  serializedVersion: 6
  m_Component:
  - component: {fileID: 6598857572001941216}
  m_Layer: 7
  m_Name: Bone015
  m_TagString: Untagged
  m_Icon: {fileID: 0}
  m_NavMeshLayer: 0
  m_StaticEditorFlags: 0
  m_IsActive: 1
--- !u!4 &6598857572001941216
Transform:
  m_ObjectHideFlags: 0
  m_CorrespondingSourceObject: {fileID: 0}
  m_PrefabInstance: {fileID: 0}
  m_PrefabAsset: {fileID: 0}
  m_GameObject: {fileID: 6598857572002110144}
  m_LocalRotation: {x: 0.0012576744, y: -0.0009282681, z: -0.049453966, w: 0.9987752}
  m_LocalPosition: {x: -0.24936813, y: -0.000000076293944, z: 0.0000000500679}
  m_LocalScale: {x: 1, y: 1, z: 1}
  m_Children: []
  m_Father: {fileID: 6598857572001941220}
  m_RootOrder: 0
  m_LocalEulerAnglesHint: {x: 0, y: 0, z: 0}
--- !u!1 &6598857572002110146
GameObject:
  m_ObjectHideFlags: 0
  m_CorrespondingSourceObject: {fileID: 0}
  m_PrefabInstance: {fileID: 0}
  m_PrefabAsset: {fileID: 0}
  serializedVersion: 6
  m_Component:
  - component: {fileID: 6598857572001941218}
  m_Layer: 7
  m_Name: Bone014(mirrored)
  m_TagString: Untagged
  m_Icon: {fileID: 0}
  m_NavMeshLayer: 0
  m_StaticEditorFlags: 0
  m_IsActive: 1
--- !u!4 &6598857572001941218
Transform:
  m_ObjectHideFlags: 0
  m_CorrespondingSourceObject: {fileID: 0}
  m_PrefabInstance: {fileID: 0}
  m_PrefabAsset: {fileID: 0}
  m_GameObject: {fileID: 6598857572002110146}
  m_LocalRotation: {x: 0.0035983769, y: 0.009085858, z: -0.39441612, w: 0.91888}
  m_LocalPosition: {x: -0.17639153, y: -0.0000002670288, z: -0.0000000023841857}
  m_LocalScale: {x: 1, y: 1, z: 1}
  m_Children:
  - {fileID: 6598857572001941230}
  m_Father: {fileID: 6598857572001941222}
  m_RootOrder: 0
  m_LocalEulerAnglesHint: {x: 0, y: 0, z: 0}
--- !u!1 &6598857572002110148
GameObject:
  m_ObjectHideFlags: 0
  m_CorrespondingSourceObject: {fileID: 0}
  m_PrefabInstance: {fileID: 0}
  m_PrefabAsset: {fileID: 0}
  serializedVersion: 6
  m_Component:
  - component: {fileID: 6598857572001941220}
  m_Layer: 7
  m_Name: Bone014
  m_TagString: Untagged
  m_Icon: {fileID: 0}
  m_NavMeshLayer: 0
  m_StaticEditorFlags: 0
  m_IsActive: 1
--- !u!4 &6598857572001941220
Transform:
  m_ObjectHideFlags: 0
  m_CorrespondingSourceObject: {fileID: 0}
  m_PrefabInstance: {fileID: 0}
  m_PrefabAsset: {fileID: 0}
  m_GameObject: {fileID: 6598857572002110148}
  m_LocalRotation: {x: -0.0036968787, y: 0.009020347, z: 0.40533835, w: 0.9141148}
  m_LocalPosition: {x: -0.17639153, y: 0.0000002670288, z: 0.000000021457671}
  m_LocalScale: {x: 1, y: 1, z: 1}
  m_Children:
  - {fileID: 6598857572001941216}
  m_Father: {fileID: 6598857572001941144}
  m_RootOrder: 0
  m_LocalEulerAnglesHint: {x: 0, y: 0, z: 0}
--- !u!1 &6598857572002110150
GameObject:
  m_ObjectHideFlags: 0
  m_CorrespondingSourceObject: {fileID: 0}
  m_PrefabInstance: {fileID: 0}
  m_PrefabAsset: {fileID: 0}
  serializedVersion: 6
  m_Component:
  - component: {fileID: 6598857572001941222}
  m_Layer: 7
  m_Name: Bone013(mirrored)
  m_TagString: Untagged
  m_Icon: {fileID: 0}
  m_NavMeshLayer: 0
  m_StaticEditorFlags: 0
  m_IsActive: 1
--- !u!4 &6598857572001941222
Transform:
  m_ObjectHideFlags: 0
  m_CorrespondingSourceObject: {fileID: 0}
  m_PrefabInstance: {fileID: 0}
  m_PrefabAsset: {fileID: 0}
  m_GameObject: {fileID: 6598857572002110150}
  m_LocalRotation: {x: -0.005888496, y: -0.011581673, z: -0.42799366, w: 0.9036884}
  m_LocalPosition: {x: -0.16982408, y: 0, z: 0.00000014781952}
  m_LocalScale: {x: 1, y: 1, z: 1}
  m_Children:
  - {fileID: 6598857572001941218}
  m_Father: {fileID: 6598857572001941146}
  m_RootOrder: 0
  m_LocalEulerAnglesHint: {x: 0, y: 0, z: 0}
--- !u!1 &6598857572002110152
GameObject:
  m_ObjectHideFlags: 0
  m_CorrespondingSourceObject: {fileID: 0}
  m_PrefabInstance: {fileID: 0}
  m_PrefabAsset: {fileID: 0}
  serializedVersion: 6
  m_Component:
  - component: {fileID: 6598857572001941224}
  m_Layer: 7
  m_Name: Bone017
  m_TagString: Untagged
  m_Icon: {fileID: 0}
  m_NavMeshLayer: 0
  m_StaticEditorFlags: 0
  m_IsActive: 1
--- !u!4 &6598857572001941224
Transform:
  m_ObjectHideFlags: 0
  m_CorrespondingSourceObject: {fileID: 0}
  m_PrefabInstance: {fileID: 0}
  m_PrefabAsset: {fileID: 0}
  m_GameObject: {fileID: 6598857572002110152}
  m_LocalRotation: {x: -0.0046142177, y: 0.0065850825, z: 0.55902565, w: 0.8291114}
  m_LocalPosition: {x: -0.19676216, y: 0.000000028610229, z: 0.000000042915342}
  m_LocalScale: {x: 1, y: 1, z: 1}
  m_Children:
  - {fileID: 6598857572001941236}
  m_Father: {fileID: 6598857572001941228}
  m_RootOrder: 0
  m_LocalEulerAnglesHint: {x: 0, y: 0, z: 0}
--- !u!1 &6598857572002110154
GameObject:
  m_ObjectHideFlags: 0
  m_CorrespondingSourceObject: {fileID: 0}
  m_PrefabInstance: {fileID: 0}
  m_PrefabAsset: {fileID: 0}
  serializedVersion: 6
  m_Component:
  - component: {fileID: 6598857572001941226}
  m_Layer: 7
  m_Name: Bone016(mirrored)
  m_TagString: Untagged
  m_Icon: {fileID: 0}
  m_NavMeshLayer: 0
  m_StaticEditorFlags: 0
  m_IsActive: 1
--- !u!4 &6598857572001941226
Transform:
  m_ObjectHideFlags: 0
  m_CorrespondingSourceObject: {fileID: 0}
  m_PrefabInstance: {fileID: 0}
  m_PrefabAsset: {fileID: 0}
  m_GameObject: {fileID: 6598857572002110154}
  m_LocalRotation: {x: 0.09555422, y: 0.35115257, z: 0.520222, w: 0.7726127}
  m_LocalPosition: {x: -0.10542786, y: -0.014338493, z: 0.08205861}
  m_LocalScale: {x: 1, y: 1, z: 1}
  m_Children:
  - {fileID: 6598857572001941238}
  m_Father: {fileID: 6598857572001941210}
  m_RootOrder: 3
  m_LocalEulerAnglesHint: {x: 0, y: 0, z: 0}
--- !u!1 &6598857572002110156
GameObject:
  m_ObjectHideFlags: 0
  m_CorrespondingSourceObject: {fileID: 0}
  m_PrefabInstance: {fileID: 0}
  m_PrefabAsset: {fileID: 0}
  serializedVersion: 6
  m_Component:
  - component: {fileID: 6598857572001941228}
  m_Layer: 7
  m_Name: Bone016
  m_TagString: Untagged
  m_Icon: {fileID: 0}
  m_NavMeshLayer: 0
  m_StaticEditorFlags: 0
  m_IsActive: 1
--- !u!4 &6598857572001941228
Transform:
  m_ObjectHideFlags: 0
  m_CorrespondingSourceObject: {fileID: 0}
  m_PrefabInstance: {fileID: 0}
  m_PrefabAsset: {fileID: 0}
  m_GameObject: {fileID: 6598857572002110156}
  m_LocalRotation: {x: 0.7675497, y: 0.51278424, z: 0.36260122, w: 0.12821929}
  m_LocalPosition: {x: -0.10542795, y: -0.014338493, z: -0.078594625}
  m_LocalScale: {x: 1, y: 1, z: 1}
  m_Children:
  - {fileID: 6598857572001941224}
  m_Father: {fileID: 6598857572001941210}
  m_RootOrder: 2
  m_LocalEulerAnglesHint: {x: 0, y: 0, z: 0}
--- !u!1 &6598857572002110158
GameObject:
  m_ObjectHideFlags: 0
  m_CorrespondingSourceObject: {fileID: 0}
  m_PrefabInstance: {fileID: 0}
  m_PrefabAsset: {fileID: 0}
  serializedVersion: 6
  m_Component:
  - component: {fileID: 6598857572001941230}
  m_Layer: 7
  m_Name: Bone015(mirrored)
  m_TagString: Untagged
  m_Icon: {fileID: 0}
  m_NavMeshLayer: 0
  m_StaticEditorFlags: 0
  m_IsActive: 1
--- !u!4 &6598857572001941230
Transform:
  m_ObjectHideFlags: 0
  m_CorrespondingSourceObject: {fileID: 0}
  m_PrefabInstance: {fileID: 0}
  m_PrefabAsset: {fileID: 0}
  m_GameObject: {fileID: 6598857572002110158}
  m_LocalRotation: {x: -0.0012574577, y: -0.0009289022, z: 0.049453553, w: 0.99877524}
  m_LocalPosition: {x: -0.2493679, y: -0.000000038146972, z: -0.000000019073486}
  m_LocalScale: {x: 1, y: 1, z: 1}
  m_Children: []
  m_Father: {fileID: 6598857572001941218}
  m_RootOrder: 0
  m_LocalEulerAnglesHint: {x: 0, y: 0, z: 0}
--- !u!1 &6598857572002110160
GameObject:
  m_ObjectHideFlags: 0
  m_CorrespondingSourceObject: {fileID: 0}
  m_PrefabInstance: {fileID: 0}
  m_PrefabAsset: {fileID: 0}
  serializedVersion: 6
  m_Component:
  - component: {fileID: 6598857572001941232}
  m_Layer: 7
  m_Name: Bone019
  m_TagString: Untagged
  m_Icon: {fileID: 0}
  m_NavMeshLayer: 0
  m_StaticEditorFlags: 0
  m_IsActive: 1
--- !u!4 &6598857572001941232
Transform:
  m_ObjectHideFlags: 0
  m_CorrespondingSourceObject: {fileID: 0}
  m_PrefabInstance: {fileID: 0}
  m_PrefabAsset: {fileID: 0}
  m_GameObject: {fileID: 6598857572002110160}
  m_LocalRotation: {x: -0.0046335864, y: 0.012051582, z: 0.40975147, w: 0.9121058}
  m_LocalPosition: {x: -0.17831272, y: 0.00000034332274, z: 0.000000038146972}
  m_LocalScale: {x: 1, y: 1, z: 1}
  m_Children:
  - {fileID: 6598857572001941244}
  m_Father: {fileID: 6598857572001941236}
  m_RootOrder: 0
  m_LocalEulerAnglesHint: {x: 0, y: 0, z: 0}
--- !u!1 &6598857572002110162
GameObject:
  m_ObjectHideFlags: 0
  m_CorrespondingSourceObject: {fileID: 0}
  m_PrefabInstance: {fileID: 0}
  m_PrefabAsset: {fileID: 0}
  serializedVersion: 6
  m_Component:
  - component: {fileID: 6598857572001941234}
  m_Layer: 7
  m_Name: Bone018(mirrored)
  m_TagString: Untagged
  m_Icon: {fileID: 0}
  m_NavMeshLayer: 0
  m_StaticEditorFlags: 0
  m_IsActive: 1
--- !u!4 &6598857572001941234
Transform:
  m_ObjectHideFlags: 0
  m_CorrespondingSourceObject: {fileID: 0}
  m_PrefabInstance: {fileID: 0}
  m_PrefabAsset: {fileID: 0}
  m_GameObject: {fileID: 6598857572002110162}
  m_LocalRotation: {x: -0.006383107, y: -0.011893905, z: -0.426991, w: 0.90415514}
  m_LocalPosition: {x: -0.16971642, y: 0.000000038146972, z: 0}
  m_LocalScale: {x: 1, y: 1, z: 1}
  m_Children:
  - {fileID: 6598857572001941246}
  m_Father: {fileID: 6598857572001941238}
  m_RootOrder: 0
  m_LocalEulerAnglesHint: {x: 0, y: 0, z: 0}
--- !u!1 &6598857572002110164
GameObject:
  m_ObjectHideFlags: 0
  m_CorrespondingSourceObject: {fileID: 0}
  m_PrefabInstance: {fileID: 0}
  m_PrefabAsset: {fileID: 0}
  serializedVersion: 6
  m_Component:
  - component: {fileID: 6598857572001941236}
  m_Layer: 7
  m_Name: Bone018
  m_TagString: Untagged
  m_Icon: {fileID: 0}
  m_NavMeshLayer: 0
  m_StaticEditorFlags: 0
  m_IsActive: 1
--- !u!4 &6598857572001941236
Transform:
  m_ObjectHideFlags: 0
  m_CorrespondingSourceObject: {fileID: 0}
  m_PrefabInstance: {fileID: 0}
  m_PrefabAsset: {fileID: 0}
  m_GameObject: {fileID: 6598857572002110164}
  m_LocalRotation: {x: 0.0064746747, y: -0.011835049, z: 0.43022296, w: 0.90262187}
  m_LocalPosition: {x: -0.16971618, y: 0.000000076293944, z: 0.0000000333786}
  m_LocalScale: {x: 1, y: 1, z: 1}
  m_Children:
  - {fileID: 6598857572001941232}
  m_Father: {fileID: 6598857572001941224}
  m_RootOrder: 0
  m_LocalEulerAnglesHint: {x: 0, y: 0, z: 0}
--- !u!1 &6598857572002110166
GameObject:
  m_ObjectHideFlags: 0
  m_CorrespondingSourceObject: {fileID: 0}
  m_PrefabInstance: {fileID: 0}
  m_PrefabAsset: {fileID: 0}
  serializedVersion: 6
  m_Component:
  - component: {fileID: 6598857572001941238}
  m_Layer: 7
  m_Name: Bone017(mirrored)
  m_TagString: Untagged
  m_Icon: {fileID: 0}
  m_NavMeshLayer: 0
  m_StaticEditorFlags: 0
  m_IsActive: 1
--- !u!4 &6598857572001941238
Transform:
  m_ObjectHideFlags: 0
  m_CorrespondingSourceObject: {fileID: 0}
  m_PrefabInstance: {fileID: 0}
  m_PrefabAsset: {fileID: 0}
  m_GameObject: {fileID: 6598857572002110166}
  m_LocalRotation: {x: 0.004568496, y: 0.0066133304, z: -0.55698484, w: 0.8304838}
  m_LocalPosition: {x: -0.19676208, y: 0.000000028610229, z: 0.000000009536743}
  m_LocalScale: {x: 1, y: 1, z: 1}
  m_Children:
  - {fileID: 6598857572001941234}
  m_Father: {fileID: 6598857572001941226}
  m_RootOrder: 0
  m_LocalEulerAnglesHint: {x: 0, y: 0, z: 0}
--- !u!1 &6598857572002110168
GameObject:
  m_ObjectHideFlags: 0
  m_CorrespondingSourceObject: {fileID: 0}
  m_PrefabInstance: {fileID: 0}
  m_PrefabAsset: {fileID: 0}
  serializedVersion: 6
  m_Component:
  - component: {fileID: 6598857572001941240}
  m_Layer: 7
  m_Name: Bone021
  m_TagString: Untagged
  m_Icon: {fileID: 0}
  m_NavMeshLayer: 0
  m_StaticEditorFlags: 0
  m_IsActive: 1
--- !u!4 &6598857572001941240
Transform:
  m_ObjectHideFlags: 0
  m_CorrespondingSourceObject: {fileID: 0}
  m_PrefabInstance: {fileID: 0}
  m_PrefabAsset: {fileID: 0}
  m_GameObject: {fileID: 6598857572002110168}
  m_LocalRotation: {x: 0.00000007187195, y: -8.59466e-11, z: -0.33927488, w: 0.9406873}
  m_LocalPosition: {x: 0.000047416685, y: 0.0089816665, z: -0.031500548}
  m_LocalScale: {x: 1, y: 1, z: 1}
  m_Children:
  - {fileID: 6598857572001941188}
  m_Father: {fileID: 6598857572001941212}
  m_RootOrder: 0
  m_LocalEulerAnglesHint: {x: 0, y: 0, z: 0}
--- !u!1 &6598857572002110170
GameObject:
  m_ObjectHideFlags: 0
  m_CorrespondingSourceObject: {fileID: 0}
  m_PrefabInstance: {fileID: 0}
  m_PrefabAsset: {fileID: 0}
  serializedVersion: 6
  m_Component:
  - component: {fileID: 6598857572001941242}
  m_Layer: 7
  m_Name: Bone020(mirrored)
  m_TagString: Untagged
  m_Icon: {fileID: 0}
  m_NavMeshLayer: 0
  m_StaticEditorFlags: 0
  m_IsActive: 1
--- !u!4 &6598857572001941242
Transform:
  m_ObjectHideFlags: 0
  m_CorrespondingSourceObject: {fileID: 0}
  m_PrefabInstance: {fileID: 0}
  m_PrefabAsset: {fileID: 0}
  m_GameObject: {fileID: 6598857572002110170}
  m_LocalRotation: {x: -0.001033527, y: -0.000954013, z: 0.059683114, w: 0.9982164}
  m_LocalPosition: {x: -0.2549472, y: 0.0000002670288, z: 0.000000047683713}
  m_LocalScale: {x: 1, y: 1, z: 1}
  m_Children: []
  m_Father: {fileID: 6598857572001941246}
  m_RootOrder: 0
  m_LocalEulerAnglesHint: {x: 0, y: 0, z: 0}
--- !u!1 &6598857572002110172
GameObject:
  m_ObjectHideFlags: 0
  m_CorrespondingSourceObject: {fileID: 0}
  m_PrefabInstance: {fileID: 0}
  m_PrefabAsset: {fileID: 0}
  serializedVersion: 6
  m_Component:
  - component: {fileID: 6598857572001941244}
  m_Layer: 7
  m_Name: Bone020
  m_TagString: Untagged
  m_Icon: {fileID: 0}
  m_NavMeshLayer: 0
  m_StaticEditorFlags: 0
  m_IsActive: 1
--- !u!4 &6598857572001941244
Transform:
  m_ObjectHideFlags: 0
  m_CorrespondingSourceObject: {fileID: 0}
  m_PrefabInstance: {fileID: 0}
  m_PrefabAsset: {fileID: 0}
  m_GameObject: {fileID: 6598857572002110172}
  m_LocalRotation: {x: 0.0010334072, y: -0.00095407636, z: -0.05968262, w: 0.99821645}
  m_LocalPosition: {x: -0.25494745, y: 0.000000038146972, z: -0.0000001335144}
  m_LocalScale: {x: 1, y: 1, z: 1}
  m_Children: []
  m_Father: {fileID: 6598857572001941232}
  m_RootOrder: 0
  m_LocalEulerAnglesHint: {x: 0, y: 0, z: 0}
--- !u!1 &6598857572002110174
GameObject:
  m_ObjectHideFlags: 0
  m_CorrespondingSourceObject: {fileID: 0}
  m_PrefabInstance: {fileID: 0}
  m_PrefabAsset: {fileID: 0}
  serializedVersion: 6
  m_Component:
  - component: {fileID: 6598857572001941246}
  m_Layer: 7
  m_Name: Bone019(mirrored)
  m_TagString: Untagged
  m_Icon: {fileID: 0}
  m_NavMeshLayer: 0
  m_StaticEditorFlags: 0
  m_IsActive: 1
--- !u!4 &6598857572001941246
Transform:
  m_ObjectHideFlags: 0
  m_CorrespondingSourceObject: {fileID: 0}
  m_PrefabInstance: {fileID: 0}
  m_PrefabAsset: {fileID: 0}
  m_GameObject: {fileID: 6598857572002110174}
  m_LocalRotation: {x: 0.0046022283, y: 0.012074435, z: -0.40710464, w: 0.91329014}
  m_LocalPosition: {x: -0.17831273, y: -0.00000034332274, z: 0.000000014305114}
  m_LocalScale: {x: 1, y: 1, z: 1}
  m_Children:
  - {fileID: 6598857572001941242}
  m_Father: {fileID: 6598857572001941234}
  m_RootOrder: 0
  m_LocalEulerAnglesHint: {x: 0, y: 0, z: 0}
--- !u!1 &6598857572002110176
GameObject:
  m_ObjectHideFlags: 0
  m_CorrespondingSourceObject: {fileID: 0}
  m_PrefabInstance: {fileID: 0}
  m_PrefabAsset: {fileID: 0}
  serializedVersion: 6
  m_Component:
  - component: {fileID: 6598857572001941120}
  m_Layer: 7
  m_Name: Bone007
  m_TagString: Untagged
  m_Icon: {fileID: 0}
  m_NavMeshLayer: 0
  m_StaticEditorFlags: 0
  m_IsActive: 1
--- !u!4 &6598857572001941120
Transform:
  m_ObjectHideFlags: 0
  m_CorrespondingSourceObject: {fileID: 0}
  m_PrefabInstance: {fileID: 0}
  m_PrefabAsset: {fileID: 0}
  m_GameObject: {fileID: 6598857572002110176}
  m_LocalRotation: {x: -0.001637989, y: 0.0025432794, z: 0.5464006, w: 0.8375186}
  m_LocalPosition: {x: -0.19815652, y: 0.000000019073486, z: -0.0000000023841857}
  m_LocalScale: {x: 1, y: 1, z: 1}
  m_Children:
  - {fileID: 6598857572001941132}
  m_Father: {fileID: 6598857572001941124}
  m_RootOrder: 0
  m_LocalEulerAnglesHint: {x: 0, y: 0, z: 0}
--- !u!1 &6598857572002110178
GameObject:
  m_ObjectHideFlags: 0
  m_CorrespondingSourceObject: {fileID: 0}
  m_PrefabInstance: {fileID: 0}
  m_PrefabAsset: {fileID: 0}
  serializedVersion: 6
  m_Component:
  - component: {fileID: 6598857572001941122}
  m_Layer: 7
  m_Name: Bone006(mirrored)
  m_TagString: Untagged
  m_Icon: {fileID: 0}
  m_NavMeshLayer: 0
  m_StaticEditorFlags: 0
  m_IsActive: 1
--- !u!4 &6598857572001941122
Transform:
  m_ObjectHideFlags: 0
  m_CorrespondingSourceObject: {fileID: 0}
  m_PrefabInstance: {fileID: 0}
  m_PrefabAsset: {fileID: 0}
  m_GameObject: {fileID: 6598857572002110178}
  m_LocalRotation: {x: 0.69468224, y: -0.40078884, z: -0.53311914, w: 0.2693862}
  m_LocalPosition: {x: -0.041679658, y: 0.0026354217, z: 0.13514668}
  m_LocalScale: {x: 1, y: 1, z: 1}
  m_Children:
  - {fileID: 6598857572001941134}
  m_Father: {fileID: 6598857572001941126}
  m_RootOrder: 4
  m_LocalEulerAnglesHint: {x: 0, y: 0, z: 0}
--- !u!1 &6598857572002110180
GameObject:
  m_ObjectHideFlags: 0
  m_CorrespondingSourceObject: {fileID: 0}
  m_PrefabInstance: {fileID: 0}
  m_PrefabAsset: {fileID: 0}
  serializedVersion: 6
  m_Component:
  - component: {fileID: 6598857572001941124}
  m_Layer: 7
  m_Name: Bone006
  m_TagString: Untagged
  m_Icon: {fileID: 0}
  m_NavMeshLayer: 0
  m_StaticEditorFlags: 0
  m_IsActive: 1
--- !u!4 &6598857572001941124
Transform:
  m_ObjectHideFlags: 0
  m_CorrespondingSourceObject: {fileID: 0}
  m_PrefabInstance: {fileID: 0}
  m_PrefabAsset: {fileID: 0}
  m_GameObject: {fileID: 6598857572002110180}
  m_LocalRotation: {x: 0.25926602, y: -0.52973694, z: -0.41411415, w: 0.6933032}
  m_LocalPosition: {x: -0.04167961, y: 0.0026354217, z: -0.13168277}
  m_LocalScale: {x: 1, y: 1, z: 1}
  m_Children:
  - {fileID: 6598857572001941120}
  m_Father: {fileID: 6598857572001941126}
  m_RootOrder: 3
  m_LocalEulerAnglesHint: {x: 0, y: 0, z: 0}
--- !u!1 &6598857572002110182
GameObject:
  m_ObjectHideFlags: 0
  m_CorrespondingSourceObject: {fileID: 0}
  m_PrefabInstance: {fileID: 0}
  m_PrefabAsset: {fileID: 0}
  serializedVersion: 6
  m_Component:
  - component: {fileID: 6598857572001941126}
  m_Layer: 7
  m_Name: Bip01-Spine
  m_TagString: Untagged
  m_Icon: {fileID: 0}
  m_NavMeshLayer: 0
  m_StaticEditorFlags: 0
  m_IsActive: 1
--- !u!4 &6598857572001941126
Transform:
  m_ObjectHideFlags: 0
  m_CorrespondingSourceObject: {fileID: 0}
  m_PrefabInstance: {fileID: 0}
  m_PrefabAsset: {fileID: 0}
  m_GameObject: {fileID: 6598857572002110182}
  m_LocalRotation: {x: 0.0000016909852, y: 0.0000014805647, z: -0.70757425, w: 0.706639}
  m_LocalPosition: {x: -0.007699184, y: 0.009565947, z: 0.0000000327599}
  m_LocalScale: {x: 1, y: 1, z: 1}
  m_Children:
  - {fileID: 6598857572001941172}
  - {fileID: 6598857572001941170}
  - {fileID: 6598857572001941176}
  - {fileID: 6598857572001941124}
  - {fileID: 6598857572001941122}
  - {fileID: 6598857572001941292}
  m_Father: {fileID: 6598857572001941166}
  m_RootOrder: 0
  m_LocalEulerAnglesHint: {x: 0, y: 0, z: 0}
--- !u!1 &6598857572002110184
GameObject:
  m_ObjectHideFlags: 0
  m_CorrespondingSourceObject: {fileID: 0}
  m_PrefabInstance: {fileID: 0}
  m_PrefabAsset: {fileID: 0}
  serializedVersion: 6
  m_Component:
  - component: {fileID: 6598857572001941128}
  m_Layer: 7
  m_Name: Bone009
  m_TagString: Untagged
  m_Icon: {fileID: 0}
  m_NavMeshLayer: 0
  m_StaticEditorFlags: 0
  m_IsActive: 1
--- !u!4 &6598857572001941128
Transform:
  m_ObjectHideFlags: 0
  m_CorrespondingSourceObject: {fileID: 0}
  m_PrefabInstance: {fileID: 0}
  m_PrefabAsset: {fileID: 0}
  m_GameObject: {fileID: 6598857572002110184}
  m_LocalRotation: {x: -0.0015361018, y: 0.0052816737, z: 0.42393547, w: 0.9056757}
  m_LocalPosition: {x: -0.1781543, y: 0.0000002670288, z: -0.000000007152557}
  m_LocalScale: {x: 1, y: 1, z: 1}
  m_Children:
  - {fileID: 6598857572001941140}
  m_Father: {fileID: 6598857572001941132}
  m_RootOrder: 0
  m_LocalEulerAnglesHint: {x: 0, y: 0, z: 0}
--- !u!1 &6598857572002110186
GameObject:
  m_ObjectHideFlags: 0
  m_CorrespondingSourceObject: {fileID: 0}
  m_PrefabInstance: {fileID: 0}
  m_PrefabAsset: {fileID: 0}
  serializedVersion: 6
  m_Component:
  - component: {fileID: 6598857572001941130}
  m_Layer: 7
  m_Name: Bone008(mirrored)
  m_TagString: Untagged
  m_Icon: {fileID: 0}
  m_NavMeshLayer: 0
  m_StaticEditorFlags: 0
  m_IsActive: 1
--- !u!4 &6598857572001941130
Transform:
  m_ObjectHideFlags: 0
  m_CorrespondingSourceObject: {fileID: 0}
  m_PrefabInstance: {fileID: 0}
  m_PrefabAsset: {fileID: 0}
  m_GameObject: {fileID: 6598857572002110186}
  m_LocalRotation: {x: -0.0023896848, y: -0.0024717015, z: -0.40204495, w: 0.9156135}
  m_LocalPosition: {x: -0.16341041, y: 0.000000114440915, z: -0.00000006198883}
  m_LocalScale: {x: 1, y: 1, z: 1}
  m_Children:
  - {fileID: 6598857572001941142}
  m_Father: {fileID: 6598857572001941134}
  m_RootOrder: 0
  m_LocalEulerAnglesHint: {x: 0, y: 0, z: 0}
--- !u!1 &6598857572002110188
GameObject:
  m_ObjectHideFlags: 0
  m_CorrespondingSourceObject: {fileID: 0}
  m_PrefabInstance: {fileID: 0}
  m_PrefabAsset: {fileID: 0}
  serializedVersion: 6
  m_Component:
  - component: {fileID: 6598857572001941132}
  m_Layer: 7
  m_Name: Bone008
  m_TagString: Untagged
  m_Icon: {fileID: 0}
  m_NavMeshLayer: 0
  m_StaticEditorFlags: 0
  m_IsActive: 1
--- !u!4 &6598857572001941132
Transform:
  m_ObjectHideFlags: 0
  m_CorrespondingSourceObject: {fileID: 0}
  m_PrefabInstance: {fileID: 0}
  m_PrefabAsset: {fileID: 0}
  m_GameObject: {fileID: 6598857572002110188}
  m_LocalRotation: {x: 0.0025166417, y: -0.002356969, z: 0.41857716, w: 0.9081747}
  m_LocalPosition: {x: -0.16341025, y: -0.000000038146972, z: 0.000000052452087}
  m_LocalScale: {x: 1, y: 1, z: 1}
  m_Children:
  - {fileID: 6598857572001941128}
  m_Father: {fileID: 6598857572001941120}
  m_RootOrder: 0
  m_LocalEulerAnglesHint: {x: 0, y: 0, z: 0}
--- !u!1 &6598857572002110190
GameObject:
  m_ObjectHideFlags: 0
  m_CorrespondingSourceObject: {fileID: 0}
  m_PrefabInstance: {fileID: 0}
  m_PrefabAsset: {fileID: 0}
  serializedVersion: 6
  m_Component:
  - component: {fileID: 6598857572001941134}
  m_Layer: 7
  m_Name: Bone007(mirrored)
  m_TagString: Untagged
  m_Icon: {fileID: 0}
  m_NavMeshLayer: 0
  m_StaticEditorFlags: 0
  m_IsActive: 1
--- !u!4 &6598857572001941134
Transform:
  m_ObjectHideFlags: 0
  m_CorrespondingSourceObject: {fileID: 0}
  m_PrefabInstance: {fileID: 0}
  m_PrefabAsset: {fileID: 0}
  m_GameObject: {fileID: 6598857572002110190}
  m_LocalRotation: {x: 0.0015689357, y: 0.0025619809, z: -0.53573567, w: 0.8443805}
  m_LocalPosition: {x: -0.19815649, y: -0.00000016212464, z: -0.000000069141386}
  m_LocalScale: {x: 1, y: 1, z: 1}
  m_Children:
  - {fileID: 6598857572001941130}
  m_Father: {fileID: 6598857572001941122}
  m_RootOrder: 0
  m_LocalEulerAnglesHint: {x: 0, y: 0, z: 0}
--- !u!1 &6598857572002110192
GameObject:
  m_ObjectHideFlags: 0
  m_CorrespondingSourceObject: {fileID: 0}
  m_PrefabInstance: {fileID: 0}
  m_PrefabAsset: {fileID: 0}
  serializedVersion: 6
  m_Component:
  - component: {fileID: 6598857572001941136}
  m_Layer: 7
  m_Name: Bone011
  m_TagString: Untagged
  m_Icon: {fileID: 0}
  m_NavMeshLayer: 0
  m_StaticEditorFlags: 0
  m_IsActive: 1
--- !u!4 &6598857572001941136
Transform:
  m_ObjectHideFlags: 0
  m_CorrespondingSourceObject: {fileID: 0}
  m_PrefabInstance: {fileID: 0}
  m_PrefabAsset: {fileID: 0}
  m_GameObject: {fileID: 6598857572002110192}
  m_LocalRotation: {x: 0.65528846, y: 0.4430122, z: 0.54518324, w: 0.27769154}
  m_LocalPosition: {x: -0.04532602, y: 0.0005659866, z: -0.13446742}
  m_LocalScale: {x: 1, y: 1, z: 1}
  m_Children:
  - {fileID: 6598857572001941148}
  m_Father: {fileID: 6598857572001941210}
  m_RootOrder: 0
  m_LocalEulerAnglesHint: {x: 0, y: 0, z: 0}
--- !u!1 &6598857572002110194
GameObject:
  m_ObjectHideFlags: 0
  m_CorrespondingSourceObject: {fileID: 0}
  m_PrefabInstance: {fileID: 0}
  m_PrefabAsset: {fileID: 0}
  serializedVersion: 6
  m_Component:
  - component: {fileID: 6598857572001941138}
  m_Layer: 7
  m_Name: Bone010(mirrored)
  m_TagString: Untagged
  m_Icon: {fileID: 0}
  m_NavMeshLayer: 0
  m_StaticEditorFlags: 0
  m_IsActive: 1
--- !u!4 &6598857572001941138
Transform:
  m_ObjectHideFlags: 0
  m_CorrespondingSourceObject: {fileID: 0}
  m_PrefabInstance: {fileID: 0}
  m_PrefabAsset: {fileID: 0}
  m_GameObject: {fileID: 6598857572002110194}
  m_LocalRotation: {x: 0.0034750742, y: 0.003036497, z: 0.06519345, w: 0.997862}
  m_LocalPosition: {x: -0.25498673, y: 0.000000038146972, z: -0.0000000333786}
  m_LocalScale: {x: 1, y: 1, z: 1}
  m_Children: []
  m_Father: {fileID: 6598857572001941142}
  m_RootOrder: 0
  m_LocalEulerAnglesHint: {x: 0, y: 0, z: 0}
--- !u!1 &6598857572002110196
GameObject:
  m_ObjectHideFlags: 0
  m_CorrespondingSourceObject: {fileID: 0}
  m_PrefabInstance: {fileID: 0}
  m_PrefabAsset: {fileID: 0}
  serializedVersion: 6
  m_Component:
  - component: {fileID: 6598857572001941140}
  m_Layer: 7
  m_Name: Bone010
  m_TagString: Untagged
  m_Icon: {fileID: 0}
  m_NavMeshLayer: 0
  m_StaticEditorFlags: 0
  m_IsActive: 1
--- !u!4 &6598857572001941140
Transform:
  m_ObjectHideFlags: 0
  m_CorrespondingSourceObject: {fileID: 0}
  m_PrefabInstance: {fileID: 0}
  m_PrefabAsset: {fileID: 0}
  m_GameObject: {fileID: 6598857572002110196}
  m_LocalRotation: {x: -0.0034748286, y: 0.0030364788, z: -0.06519287, w: 0.99786204}
  m_LocalPosition: {x: -0.25498667, y: 0.000000076293944, z: 0.0000000500679}
  m_LocalScale: {x: 1, y: 1, z: 0.999999}
  m_Children: []
  m_Father: {fileID: 6598857572001941128}
  m_RootOrder: 0
  m_LocalEulerAnglesHint: {x: 0, y: 0, z: 0}
--- !u!1 &6598857572002110198
GameObject:
  m_ObjectHideFlags: 0
  m_CorrespondingSourceObject: {fileID: 0}
  m_PrefabInstance: {fileID: 0}
  m_PrefabAsset: {fileID: 0}
  serializedVersion: 6
  m_Component:
  - component: {fileID: 6598857572001941142}
  m_Layer: 7
  m_Name: Bone009(mirrored)
  m_TagString: Untagged
  m_Icon: {fileID: 0}
  m_NavMeshLayer: 0
  m_StaticEditorFlags: 0
  m_IsActive: 1
--- !u!4 &6598857572001941142
Transform:
  m_ObjectHideFlags: 0
  m_CorrespondingSourceObject: {fileID: 0}
  m_PrefabInstance: {fileID: 0}
  m_PrefabAsset: {fileID: 0}
  m_GameObject: {fileID: 6598857572002110198}
  m_LocalRotation: {x: 0.001455652, y: 0.0053009572, z: -0.41040477, w: 0.91188693}
  m_LocalPosition: {x: -0.17815435, y: -0.0000004196167, z: 0.00000008106232}
  m_LocalScale: {x: 1, y: 1, z: 1}
  m_Children:
  - {fileID: 6598857572001941138}
  m_Father: {fileID: 6598857572001941130}
  m_RootOrder: 0
  m_LocalEulerAnglesHint: {x: 0, y: 0, z: 0}
--- !u!1 &6598857572002110200
GameObject:
  m_ObjectHideFlags: 0
  m_CorrespondingSourceObject: {fileID: 0}
  m_PrefabInstance: {fileID: 0}
  m_PrefabAsset: {fileID: 0}
  serializedVersion: 6
  m_Component:
  - component: {fileID: 6598857572001941144}
  m_Layer: 7
  m_Name: Bone013
  m_TagString: Untagged
  m_Icon: {fileID: 0}
  m_NavMeshLayer: 0
  m_StaticEditorFlags: 0
  m_IsActive: 1
--- !u!4 &6598857572001941144
Transform:
  m_ObjectHideFlags: 0
  m_CorrespondingSourceObject: {fileID: 0}
  m_PrefabInstance: {fileID: 0}
  m_PrefabAsset: {fileID: 0}
  m_GameObject: {fileID: 6598857572002110200}
  m_LocalRotation: {x: 0.006198879, y: -0.011371494, z: 0.44141027, w: 0.8972119}
  m_LocalPosition: {x: -0.16982406, y: 0, z: -0.0000000023841857}
  m_LocalScale: {x: 1, y: 1, z: 1}
  m_Children:
  - {fileID: 6598857572001941220}
  m_Father: {fileID: 6598857572001941148}
  m_RootOrder: 0
  m_LocalEulerAnglesHint: {x: 0, y: 0, z: 0}
--- !u!1 &6598857572002110202
GameObject:
  m_ObjectHideFlags: 0
  m_CorrespondingSourceObject: {fileID: 0}
  m_PrefabInstance: {fileID: 0}
  m_PrefabAsset: {fileID: 0}
  serializedVersion: 6
  m_Component:
  - component: {fileID: 6598857572001941146}
  m_Layer: 7
  m_Name: Bone012(mirrored)
  m_TagString: Untagged
  m_Icon: {fileID: 0}
  m_NavMeshLayer: 0
  m_StaticEditorFlags: 0
  m_IsActive: 1
--- !u!4 &6598857572001941146
Transform:
  m_ObjectHideFlags: 0
  m_CorrespondingSourceObject: {fileID: 0}
  m_PrefabInstance: {fileID: 0}
  m_PrefabAsset: {fileID: 0}
  m_GameObject: {fileID: 6598857572002110202}
  m_LocalRotation: {x: 0.0043530744, y: 0.006429968, z: -0.5647567, w: 0.82522094}
  m_LocalPosition: {x: -0.19676219, y: 0.000000038146972, z: -0.000000038146972}
  m_LocalScale: {x: 1, y: 1, z: 1}
  m_Children:
  - {fileID: 6598857572001941222}
  m_Father: {fileID: 6598857572001941150}
  m_RootOrder: 0
  m_LocalEulerAnglesHint: {x: 0, y: 0, z: 0}
--- !u!1 &6598857572002110204
GameObject:
  m_ObjectHideFlags: 0
  m_CorrespondingSourceObject: {fileID: 0}
  m_PrefabInstance: {fileID: 0}
  m_PrefabAsset: {fileID: 0}
  serializedVersion: 6
  m_Component:
  - component: {fileID: 6598857572001941148}
  m_Layer: 7
  m_Name: Bone012
  m_TagString: Untagged
  m_Icon: {fileID: 0}
  m_NavMeshLayer: 0
  m_StaticEditorFlags: 0
  m_IsActive: 1
--- !u!4 &6598857572001941148
Transform:
  m_ObjectHideFlags: 0
  m_CorrespondingSourceObject: {fileID: 0}
  m_PrefabInstance: {fileID: 0}
  m_PrefabAsset: {fileID: 0}
  m_GameObject: {fileID: 6598857572002110204}
  m_LocalRotation: {x: -0.0045546805, y: 0.0062847664, z: 0.5731342, w: 0.81942475}
  m_LocalPosition: {x: -0.19676208, y: -0.000000009536743, z: -0.000000038146972}
  m_LocalScale: {x: 1, y: 1, z: 1}
  m_Children:
  - {fileID: 6598857572001941144}
  m_Father: {fileID: 6598857572001941136}
  m_RootOrder: 0
  m_LocalEulerAnglesHint: {x: 0, y: 0, z: 0}
--- !u!1 &6598857572002110206
GameObject:
  m_ObjectHideFlags: 0
  m_CorrespondingSourceObject: {fileID: 0}
  m_PrefabInstance: {fileID: 0}
  m_PrefabAsset: {fileID: 0}
  serializedVersion: 6
  m_Component:
  - component: {fileID: 6598857572001941150}
  m_Layer: 7
  m_Name: Bone011(mirrored)
  m_TagString: Untagged
  m_Icon: {fileID: 0}
  m_NavMeshLayer: 0
  m_StaticEditorFlags: 0
  m_IsActive: 1
--- !u!4 &6598857572001941150
Transform:
  m_ObjectHideFlags: 0
  m_CorrespondingSourceObject: {fileID: 0}
  m_PrefabInstance: {fileID: 0}
  m_PrefabAsset: {fileID: 0}
  m_GameObject: {fileID: 6598857572002110206}
  m_LocalRotation: {x: 0.26651573, y: 0.54204494, z: 0.44642037, w: 0.6602012}
  m_LocalPosition: {x: -0.04532589, y: 0.00056602474, z: 0.13793135}
  m_LocalScale: {x: 1, y: 1, z: 1}
  m_Children:
  - {fileID: 6598857572001941146}
  m_Father: {fileID: 6598857572001941210}
  m_RootOrder: 1
  m_LocalEulerAnglesHint: {x: 0, y: 0, z: 0}
--- !u!1 &6598857572002110208
GameObject:
  m_ObjectHideFlags: 0
  m_CorrespondingSourceObject: {fileID: 0}
  m_PrefabInstance: {fileID: 0}
  m_PrefabAsset: {fileID: 0}
  serializedVersion: 6
  m_Component:
  - component: {fileID: 6598857572001941280}
  m_Layer: 7
  m_Name: HP_buff
  m_TagString: Untagged
  m_Icon: {fileID: 0}
  m_NavMeshLayer: 0
  m_StaticEditorFlags: 0
  m_IsActive: 1
--- !u!4 &6598857572001941280
Transform:
  m_ObjectHideFlags: 0
  m_CorrespondingSourceObject: {fileID: 0}
  m_PrefabInstance: {fileID: 0}
  m_PrefabAsset: {fileID: 0}
  m_GameObject: {fileID: 6598857572002110208}
  m_LocalRotation: {x: 0.000000096857576, y: -1.0824678e-15, z: -0.000000011175871, w: 1}
  m_LocalPosition: {x: -0.25000438, y: 0.00045496493, z: 0.43800563}
  m_LocalScale: {x: 1, y: 1, z: 1}
  m_Children: []
  m_Father: {fileID: 6598857572001941158}
  m_RootOrder: 1
  m_LocalEulerAnglesHint: {x: 0, y: 0, z: 0}
--- !u!1 &6598857572002110210
GameObject:
  m_ObjectHideFlags: 0
  m_CorrespondingSourceObject: {fileID: 0}
  m_PrefabInstance: {fileID: 0}
  m_PrefabAsset: {fileID: 0}
  serializedVersion: 6
  m_Component:
  - component: {fileID: 6598857572001941282}
  m_Layer: 7
  m_Name: Bone035
  m_TagString: Untagged
  m_Icon: {fileID: 0}
  m_NavMeshLayer: 0
  m_StaticEditorFlags: 0
  m_IsActive: 1
--- !u!4 &6598857572001941282
Transform:
  m_ObjectHideFlags: 0
  m_CorrespondingSourceObject: {fileID: 0}
  m_PrefabInstance: {fileID: 0}
  m_PrefabAsset: {fileID: 0}
  m_GameObject: {fileID: 6598857572002110210}
  m_LocalRotation: {x: 0.0000071823574, y: -0.000000029801209, z: 0.000000043306702, w: 1}
  m_LocalPosition: {x: -0.18690023, y: -0.0000000043213366, z: 0.0000000020180595}
  m_LocalScale: {x: 1, y: 1, z: 1}
  m_Children: []
  m_Father: {fileID: 6598857572001941284}
  m_RootOrder: 0
  m_LocalEulerAnglesHint: {x: 0, y: 0, z: 0}
--- !u!1 &6598857572002110212
GameObject:
  m_ObjectHideFlags: 0
  m_CorrespondingSourceObject: {fileID: 0}
  m_PrefabInstance: {fileID: 0}
  m_PrefabAsset: {fileID: 0}
  serializedVersion: 6
  m_Component:
  - component: {fileID: 6598857572001941284}
  m_Layer: 7
  m_Name: Bone034
  m_TagString: Untagged
  m_Icon: {fileID: 0}
  m_NavMeshLayer: 0
  m_StaticEditorFlags: 0
  m_IsActive: 1
--- !u!4 &6598857572001941284
Transform:
  m_ObjectHideFlags: 0
  m_CorrespondingSourceObject: {fileID: 0}
  m_PrefabInstance: {fileID: 0}
  m_PrefabAsset: {fileID: 0}
  m_GameObject: {fileID: 6598857572002110212}
  m_LocalRotation: {x: -0.00000006208494, y: 0.000007864785, z: 0.99979556, w: -0.02022041}
  m_LocalPosition: {x: 0.0007246971, y: 0.0019741987, z: 0.0000000028289378}
  m_LocalScale: {x: 1, y: 1, z: 1}
  m_Children:
  - {fileID: 6598857572001941282}
  m_Father: {fileID: 6598857572001941166}
  m_RootOrder: 2
  m_LocalEulerAnglesHint: {x: 0, y: 0, z: 0}
--- !u!1 &6598857572002110214
GameObject:
  m_ObjectHideFlags: 0
  m_CorrespondingSourceObject: {fileID: 0}
  m_PrefabInstance: {fileID: 0}
  m_PrefabAsset: {fileID: 0}
  serializedVersion: 6
  m_Component:
  - component: {fileID: 6598857572001941286}
  m_Layer: 7
  m_Name: Bone033
  m_TagString: Untagged
  m_Icon: {fileID: 0}
  m_NavMeshLayer: 0
  m_StaticEditorFlags: 0
  m_IsActive: 1
--- !u!4 &6598857572001941286
Transform:
  m_ObjectHideFlags: 0
  m_CorrespondingSourceObject: {fileID: 0}
  m_PrefabInstance: {fileID: 0}
  m_PrefabAsset: {fileID: 0}
  m_GameObject: {fileID: 6598857572002110214}
  m_LocalRotation: {x: -0.0000000018627875, y: -9.31635e-10, z: -0.00000011920929, w: 1}
  m_LocalPosition: {x: -0.09149391, y: 0.000000038146972, z: -0.000000008181268}
  m_LocalScale: {x: 1, y: 1, z: 1}
  m_Children: []
  m_Father: {fileID: 6598857572001941208}
  m_RootOrder: 0
  m_LocalEulerAnglesHint: {x: 0, y: 0, z: 0}
--- !u!1 &6598857572002110220
GameObject:
  m_ObjectHideFlags: 0
  m_CorrespondingSourceObject: {fileID: 0}
  m_PrefabInstance: {fileID: 0}
  m_PrefabAsset: {fileID: 0}
  serializedVersion: 6
  m_Component:
  - component: {fileID: 6598857572001941292}
  m_Layer: 7
  m_Name: HP_spine
  m_TagString: Untagged
  m_Icon: {fileID: 0}
  m_NavMeshLayer: 0
  m_StaticEditorFlags: 0
  m_IsActive: 1
--- !u!4 &6598857572001941292
Transform:
  m_ObjectHideFlags: 0
  m_CorrespondingSourceObject: {fileID: 0}
  m_PrefabInstance: {fileID: 0}
  m_PrefabAsset: {fileID: 0}
  m_GameObject: {fileID: 6598857572002110220}
  m_LocalRotation: {x: -0.7070072, y: -0.011867827, z: 0.011867827, w: 0.7070072}
  m_LocalPosition: {x: -0.06949704, y: 0.000712738, z: -0.00012339331}
  m_LocalScale: {x: 1, y: 1, z: 1}
  m_Children: []
  m_Father: {fileID: 6598857572001941126}
  m_RootOrder: 5
  m_LocalEulerAnglesHint: {x: 0, y: 0, z: 0}
--- !u!1 &6598857572002110222
GameObject:
  m_ObjectHideFlags: 0
  m_CorrespondingSourceObject: {fileID: 0}
  m_PrefabInstance: {fileID: 0}
  m_PrefabAsset: {fileID: 0}
  serializedVersion: 6
  m_Component:
  - component: {fileID: 6598857572001941294}
  m_Layer: 7
  m_Name: HP_mouth
  m_TagString: Untagged
  m_Icon: {fileID: 0}
  m_NavMeshLayer: 0
  m_StaticEditorFlags: 0
  m_IsActive: 1
--- !u!4 &6598857572001941294
Transform:
  m_ObjectHideFlags: 0
  m_CorrespondingSourceObject: {fileID: 0}
  m_PrefabInstance: {fileID: 0}
  m_PrefabAsset: {fileID: 0}
  m_GameObject: {fileID: 6598857572002110222}
  m_LocalRotation: {x: -0.6968134, y: 0.12021289, z: -0.12021353, w: 0.6968132}
  m_LocalPosition: {x: -0.08196575, y: -0.01076168, z: -0.000413233}
  m_LocalScale: {x: 1, y: 1, z: 1}
  m_Children: []
  m_Father: {fileID: 6598857572001941170}
  m_RootOrder: 1
  m_LocalEulerAnglesHint: {x: 0, y: 0, z: 0}
--- !u!1 &6598857572002110240
GameObject:
  m_ObjectHideFlags: 0
  m_CorrespondingSourceObject: {fileID: 0}
  m_PrefabInstance: {fileID: 0}
  m_PrefabAsset: {fileID: 0}
  serializedVersion: 6
  m_Component:
  - component: {fileID: 6598857572001941184}
  m_Layer: 7
  m_Name: Bone023
  m_TagString: Untagged
  m_Icon: {fileID: 0}
  m_NavMeshLayer: 0
  m_StaticEditorFlags: 0
  m_IsActive: 1
--- !u!4 &6598857572001941184
Transform:
  m_ObjectHideFlags: 0
  m_CorrespondingSourceObject: {fileID: 0}
  m_PrefabInstance: {fileID: 0}
  m_PrefabAsset: {fileID: 0}
  m_GameObject: {fileID: 6598857572002110240}
  m_LocalRotation: {x: 0.033221185, y: -0.04094633, z: 0.6729231, w: 0.7378308}
  m_LocalPosition: {x: -0.06383836, y: 0.000000057220458, z: 0}
  m_LocalScale: {x: 1, y: 1, z: 1}
  m_Children:
  - {fileID: 6598857572001941196}
  m_Father: {fileID: 6598857572001941188}
  m_RootOrder: 0
  m_LocalEulerAnglesHint: {x: 0, y: 0, z: 0}
--- !u!1 &6598857572002110242
GameObject:
  m_ObjectHideFlags: 0
  m_CorrespondingSourceObject: {fileID: 0}
  m_PrefabInstance: {fileID: 0}
  m_PrefabAsset: {fileID: 0}
  serializedVersion: 6
  m_Component:
  - component: {fileID: 6598857572001941186}
  m_Layer: 7
  m_Name: Bone022(mirrored)
  m_TagString: Untagged
  m_Icon: {fileID: 0}
  m_NavMeshLayer: 0
  m_StaticEditorFlags: 0
  m_IsActive: 1
--- !u!4 &6598857572001941186
Transform:
  m_ObjectHideFlags: 0
  m_CorrespondingSourceObject: {fileID: 0}
  m_PrefabInstance: {fileID: 0}
  m_PrefabAsset: {fileID: 0}
  m_GameObject: {fileID: 6598857572002110242}
  m_LocalRotation: {x: -0.3873476, y: -0.23431541, z: 0.51661724, w: 0.7267494}
  m_LocalPosition: {x: -0.04618025, y: 0.000000009536743, z: -0.000000014305114}
  m_LocalScale: {x: 1, y: 1, z: 1}
  m_Children:
  - {fileID: 6598857572001941198}
  m_Father: {fileID: 6598857572001941190}
  m_RootOrder: 0
  m_LocalEulerAnglesHint: {x: 0, y: 0, z: 0}
--- !u!1 &6598857572002110244
GameObject:
  m_ObjectHideFlags: 0
  m_CorrespondingSourceObject: {fileID: 0}
  m_PrefabInstance: {fileID: 0}
  m_PrefabAsset: {fileID: 0}
  serializedVersion: 6
  m_Component:
  - component: {fileID: 6598857572001941188}
  m_Layer: 7
  m_Name: Bone022
  m_TagString: Untagged
  m_Icon: {fileID: 0}
  m_NavMeshLayer: 0
  m_StaticEditorFlags: 0
  m_IsActive: 1
--- !u!4 &6598857572001941188
Transform:
  m_ObjectHideFlags: 0
  m_CorrespondingSourceObject: {fileID: 0}
  m_PrefabInstance: {fileID: 0}
  m_PrefabAsset: {fileID: 0}
  m_GameObject: {fileID: 6598857572002110244}
  m_LocalRotation: {x: -0.016082982, y: -0.023578158, z: -0.5769211, w: 0.8163011}
  m_LocalPosition: {x: -0.046180114, y: 0, z: -0.0000000047683715}
  m_LocalScale: {x: 1, y: 1, z: 1}
  m_Children:
  - {fileID: 6598857572001941184}
  m_Father: {fileID: 6598857572001941240}
  m_RootOrder: 0
  m_LocalEulerAnglesHint: {x: 0, y: 0, z: 0}
--- !u!1 &6598857572002110246
GameObject:
  m_ObjectHideFlags: 0
  m_CorrespondingSourceObject: {fileID: 0}
  m_PrefabInstance: {fileID: 0}
  m_PrefabAsset: {fileID: 0}
  serializedVersion: 6
  m_Component:
  - component: {fileID: 6598857572001941190}
  m_Layer: 7
  m_Name: Bone021(mirrored)
  m_TagString: Untagged
  m_Icon: {fileID: 0}
  m_NavMeshLayer: 0
  m_StaticEditorFlags: 0
  m_IsActive: 1
--- !u!4 &6598857572001941190
Transform:
  m_ObjectHideFlags: 0
  m_CorrespondingSourceObject: {fileID: 0}
  m_PrefabInstance: {fileID: 0}
  m_PrefabAsset: {fileID: 0}
  m_GameObject: {fileID: 6598857572002110246}
  m_LocalRotation: {x: 0.94068724, y: -0.33927515, z: -0.000000022048862, w: -0.000000054419985}
  m_LocalPosition: {x: 0.000047426223, y: 0.008981705, z: 0.030302655}
  m_LocalScale: {x: 1, y: 1, z: 1}
  m_Children:
  - {fileID: 6598857572001941186}
  m_Father: {fileID: 6598857572001941212}
  m_RootOrder: 1
  m_LocalEulerAnglesHint: {x: 0, y: 0, z: 0}
--- !u!1 &6598857572002110248
GameObject:
  m_ObjectHideFlags: 0
  m_CorrespondingSourceObject: {fileID: 0}
  m_PrefabInstance: {fileID: 0}
  m_PrefabAsset: {fileID: 0}
  serializedVersion: 6
  m_Component:
  - component: {fileID: 6598857572001941192}
  m_Layer: 7
  m_Name: Bone025
  m_TagString: Untagged
  m_Icon: {fileID: 0}
  m_NavMeshLayer: 0
  m_StaticEditorFlags: 0
  m_IsActive: 1
--- !u!4 &6598857572001941192
Transform:
  m_ObjectHideFlags: 0
  m_CorrespondingSourceObject: {fileID: 0}
  m_PrefabInstance: {fileID: 0}
  m_PrefabAsset: {fileID: 0}
  m_GameObject: {fileID: 6598857572002110248}
  m_LocalRotation: {x: 0.00000006554183, y: 0.000000015832478, z: -0.00000008195639, w: 1}
  m_LocalPosition: {x: -0.07296579, y: 0.000000076293944, z: 0.000000015497207}
  m_LocalScale: {x: 1, y: 1, z: 1}
  m_Children: []
  m_Father: {fileID: 6598857572001941196}
  m_RootOrder: 0
  m_LocalEulerAnglesHint: {x: 0, y: 0, z: 0}
--- !u!1 &6598857572002110250
GameObject:
  m_ObjectHideFlags: 0
  m_CorrespondingSourceObject: {fileID: 0}
  m_PrefabInstance: {fileID: 0}
  m_PrefabAsset: {fileID: 0}
  serializedVersion: 6
  m_Component:
  - component: {fileID: 6598857572001941194}
  m_Layer: 7
  m_Name: Bone024(mirrored)
  m_TagString: Untagged
  m_Icon: {fileID: 0}
  m_NavMeshLayer: 0
  m_StaticEditorFlags: 0
  m_IsActive: 1
--- !u!4 &6598857572001941194
Transform:
  m_ObjectHideFlags: 0
  m_CorrespondingSourceObject: {fileID: 0}
  m_PrefabInstance: {fileID: 0}
  m_PrefabAsset: {fileID: 0}
  m_GameObject: {fileID: 6598857572002110250}
  m_LocalRotation: {x: 0.041825823, y: -0.4555079, z: -0.5075205, w: 0.73019594}
  m_LocalPosition: {x: -0.057656955, y: 0.000000057220458, z: 0.0000001335144}
  m_LocalScale: {x: 1, y: 1, z: 1}
  m_Children:
  - {fileID: 6598857572001941206}
  m_Father: {fileID: 6598857572001941198}
  m_RootOrder: 0
  m_LocalEulerAnglesHint: {x: 0, y: 0, z: 0}
--- !u!1 &6598857572002110252
GameObject:
  m_ObjectHideFlags: 0
  m_CorrespondingSourceObject: {fileID: 0}
  m_PrefabInstance: {fileID: 0}
  m_PrefabAsset: {fileID: 0}
  serializedVersion: 6
  m_Component:
  - component: {fileID: 6598857572001941196}
  m_Layer: 7
  m_Name: Bone024
  m_TagString: Untagged
  m_Icon: {fileID: 0}
  m_NavMeshLayer: 0
  m_StaticEditorFlags: 0
  m_IsActive: 1
--- !u!4 &6598857572001941196
Transform:
  m_ObjectHideFlags: 0
  m_CorrespondingSourceObject: {fileID: 0}
  m_PrefabInstance: {fileID: 0}
  m_PrefabAsset: {fileID: 0}
  m_GameObject: {fileID: 6598857572002110252}
  m_LocalRotation: {x: 0.026242776, y: -0.045695897, z: 0.68984234, w: 0.72203934}
  m_LocalPosition: {x: -0.057657164, y: 0.000000019073486, z: 0.000000014305114}
  m_LocalScale: {x: 1, y: 1, z: 1}
  m_Children:
  - {fileID: 6598857572001941192}
  m_Father: {fileID: 6598857572001941184}
  m_RootOrder: 0
  m_LocalEulerAnglesHint: {x: 0, y: 0, z: 0}
--- !u!1 &6598857572002110254
GameObject:
  m_ObjectHideFlags: 0
  m_CorrespondingSourceObject: {fileID: 0}
  m_PrefabInstance: {fileID: 0}
  m_PrefabAsset: {fileID: 0}
  serializedVersion: 6
  m_Component:
  - component: {fileID: 6598857572001941198}
  m_Layer: 7
  m_Name: Bone023(mirrored)
  m_TagString: Untagged
  m_Icon: {fileID: 0}
  m_NavMeshLayer: 0
  m_StaticEditorFlags: 0
  m_IsActive: 1
--- !u!4 &6598857572001941198
Transform:
  m_ObjectHideFlags: 0
  m_CorrespondingSourceObject: {fileID: 0}
  m_PrefabInstance: {fileID: 0}
  m_PrefabAsset: {fileID: 0}
  m_GameObject: {fileID: 6598857572002110254}
  m_LocalRotation: {x: -0.57168657, y: -0.09365277, z: 0.6775739, w: -0.45309737}
  m_LocalPosition: {x: -0.06383836, y: -0.000000019073486, z: 0}
  m_LocalScale: {x: 1, y: 1, z: 1}
  m_Children:
  - {fileID: 6598857572001941194}
  m_Father: {fileID: 6598857572001941186}
  m_RootOrder: 0
  m_LocalEulerAnglesHint: {x: 0, y: 0, z: 0}
--- !u!1 &6598857572002110256
GameObject:
  m_ObjectHideFlags: 0
  m_CorrespondingSourceObject: {fileID: 0}
  m_PrefabInstance: {fileID: 0}
  m_PrefabAsset: {fileID: 0}
  serializedVersion: 6
  m_Component:
  - component: {fileID: 6598857572001941200}
  m_Layer: 7
  m_Name: Bone027
  m_TagString: Untagged
  m_Icon: {fileID: 0}
  m_NavMeshLayer: 0
  m_StaticEditorFlags: 0
  m_IsActive: 1
--- !u!4 &6598857572001941200
Transform:
  m_ObjectHideFlags: 0
  m_CorrespondingSourceObject: {fileID: 0}
  m_PrefabInstance: {fileID: 0}
  m_PrefabAsset: {fileID: 0}
  m_GameObject: {fileID: 6598857572002110256}
  m_LocalRotation: {x: 0.00000043050386, y: 0.000000007450505, z: -0.00000017508864, w: 1}
  m_LocalPosition: {x: -0.06023405, y: -0.000000057220458, z: 0.000000005960464}
  m_LocalScale: {x: 1, y: 1, z: 1}
  m_Children: []
  m_Father: {fileID: 6598857572001941204}
  m_RootOrder: 0
  m_LocalEulerAnglesHint: {x: 0, y: 0, z: 0}
--- !u!1 &6598857572002110258
GameObject:
  m_ObjectHideFlags: 0
  m_CorrespondingSourceObject: {fileID: 0}
  m_PrefabInstance: {fileID: 0}
  m_PrefabAsset: {fileID: 0}
  serializedVersion: 6
  m_Component:
  - component: {fileID: 6598857572001941202}
  m_Layer: 7
  m_Name: Bone026(mirrored)
  m_TagString: Untagged
  m_Icon: {fileID: 0}
  m_NavMeshLayer: 0
  m_StaticEditorFlags: 0
  m_IsActive: 1
--- !u!4 &6598857572001941202
Transform:
  m_ObjectHideFlags: 0
  m_CorrespondingSourceObject: {fileID: 0}
  m_PrefabInstance: {fileID: 0}
  m_PrefabAsset: {fileID: 0}
  m_GameObject: {fileID: 6598857572002110258}
  m_LocalRotation: {x: 0.79747087, y: 0.6022817, z: 0.02873796, w: -0.021704443}
  m_LocalPosition: {x: -0.0023682213, y: -0.0036804008, z: 0.022009201}
  m_LocalScale: {x: 1, y: 1, z: 1}
  m_Children:
  - {fileID: 6598857572001941214}
  m_Father: {fileID: 6598857572001941212}
  m_RootOrder: 3
  m_LocalEulerAnglesHint: {x: 0, y: 0, z: 0}
--- !u!1 &6598857572002110260
GameObject:
  m_ObjectHideFlags: 0
  m_CorrespondingSourceObject: {fileID: 0}
  m_PrefabInstance: {fileID: 0}
  m_PrefabAsset: {fileID: 0}
  serializedVersion: 6
  m_Component:
  - component: {fileID: 6598857572001941204}
  m_Layer: 7
  m_Name: Bone026
  m_TagString: Untagged
  m_Icon: {fileID: 0}
  m_NavMeshLayer: 0
  m_StaticEditorFlags: 0
  m_IsActive: 1
--- !u!4 &6598857572001941204
Transform:
  m_ObjectHideFlags: 0
  m_CorrespondingSourceObject: {fileID: 0}
  m_PrefabInstance: {fileID: 0}
  m_PrefabAsset: {fileID: 0}
  m_GameObject: {fileID: 6598857572002110260}
  m_LocalRotation: {x: -0.021704163, y: 0.02873801, z: 0.60228175, w: 0.79747087}
  m_LocalPosition: {x: -0.002368145, y: -0.0036804008, z: -0.022668906}
  m_LocalScale: {x: 1, y: 1, z: 1}
  m_Children:
  - {fileID: 6598857572001941200}
  m_Father: {fileID: 6598857572001941212}
  m_RootOrder: 2
  m_LocalEulerAnglesHint: {x: 0, y: 0, z: 0}
--- !u!1 &6598857572002110262
GameObject:
  m_ObjectHideFlags: 0
  m_CorrespondingSourceObject: {fileID: 0}
  m_PrefabInstance: {fileID: 0}
  m_PrefabAsset: {fileID: 0}
  serializedVersion: 6
  m_Component:
  - component: {fileID: 6598857572001941206}
  m_Layer: 7
  m_Name: Bone025(mirrored)
  m_TagString: Untagged
  m_Icon: {fileID: 0}
  m_NavMeshLayer: 0
  m_StaticEditorFlags: 0
  m_IsActive: 1
--- !u!4 &6598857572001941206
Transform:
  m_ObjectHideFlags: 0
  m_CorrespondingSourceObject: {fileID: 0}
  m_PrefabInstance: {fileID: 0}
  m_PrefabAsset: {fileID: 0}
  m_GameObject: {fileID: 6598857572002110262}
  m_LocalRotation: {x: -0.37619153, y: -0.3172516, z: 0.13881841, w: 0.8593956}
  m_LocalPosition: {x: -0.07271944, y: -0.00000028610228, z: -0.000000019073486}
  m_LocalScale: {x: 1, y: 1, z: 1}
  m_Children: []
  m_Father: {fileID: 6598857572001941194}
  m_RootOrder: 0
  m_LocalEulerAnglesHint: {x: 0, y: 0, z: 0}
--- !u!1 &6598857572002110264
GameObject:
  m_ObjectHideFlags: 0
  m_CorrespondingSourceObject: {fileID: 0}
  m_PrefabInstance: {fileID: 0}
  m_PrefabAsset: {fileID: 0}
  serializedVersion: 6
  m_Component:
  - component: {fileID: 6598857572001941208}
  m_Layer: 7
  m_Name: Bone032
  m_TagString: Untagged
  m_Icon: {fileID: 0}
  m_NavMeshLayer: 0
  m_StaticEditorFlags: 0
  m_IsActive: 1
--- !u!4 &6598857572001941208
Transform:
  m_ObjectHideFlags: 0
  m_CorrespondingSourceObject: {fileID: 0}
  m_PrefabInstance: {fileID: 0}
  m_PrefabAsset: {fileID: 0}
  m_GameObject: {fileID: 6598857572002110264}
  m_LocalRotation: {x: 0.000000011645967, y: 0.00000000823249, z: -0.0848689, w: 0.99639213}
  m_LocalPosition: {x: -0.08585968, y: 0.0000002479553, z: -0.0000000073992665}
  m_LocalScale: {x: 1, y: 1, z: 1}
  m_Children:
  - {fileID: 6598857572001941286}
  m_Father: {fileID: 6598857572001941210}
  m_RootOrder: 4
  m_LocalEulerAnglesHint: {x: 0, y: 0, z: 0}
--- !u!1 &6598857572002110266
GameObject:
  m_ObjectHideFlags: 0
  m_CorrespondingSourceObject: {fileID: 0}
  m_PrefabInstance: {fileID: 0}
  m_PrefabAsset: {fileID: 0}
  serializedVersion: 6
  m_Component:
  - component: {fileID: 6598857572001941210}
  m_Layer: 7
  m_Name: Bone031
  m_TagString: Untagged
  m_Icon: {fileID: 0}
  m_NavMeshLayer: 0
  m_StaticEditorFlags: 0
  m_IsActive: 1
--- !u!4 &6598857572001941210
Transform:
  m_ObjectHideFlags: 0
  m_CorrespondingSourceObject: {fileID: 0}
  m_PrefabInstance: {fileID: 0}
  m_PrefabAsset: {fileID: 0}
  m_GameObject: {fileID: 6598857572002110266}
  m_LocalRotation: {x: 0.0000013224956, y: -0.0000017152496, z: 0.685605, w: 0.72797376}
  m_LocalPosition: {x: 0.0028047562, y: -0.005785807, z: -0.000000027874156}
  m_LocalScale: {x: 1, y: 1, z: 1}
  m_Children:
  - {fileID: 6598857572001941136}
  - {fileID: 6598857572001941150}
  - {fileID: 6598857572001941228}
  - {fileID: 6598857572001941226}
  - {fileID: 6598857572001941208}
  m_Father: {fileID: 6598857572001941166}
  m_RootOrder: 1
  m_LocalEulerAnglesHint: {x: 0, y: 0, z: 0}
--- !u!1 &6598857572002110268
GameObject:
  m_ObjectHideFlags: 0
  m_CorrespondingSourceObject: {fileID: 0}
  m_PrefabInstance: {fileID: 0}
  m_PrefabAsset: {fileID: 0}
  serializedVersion: 6
  m_Component:
  - component: {fileID: 6598857572001941212}
  m_Layer: 7
  m_Name: Bone030
  m_TagString: Untagged
  m_Icon: {fileID: 0}
  m_NavMeshLayer: 0
  m_StaticEditorFlags: 0
  m_IsActive: 1
--- !u!4 &6598857572001941212
Transform:
  m_ObjectHideFlags: 0
  m_CorrespondingSourceObject: {fileID: 0}
  m_PrefabInstance: {fileID: 0}
  m_PrefabAsset: {fileID: 0}
  m_GameObject: {fileID: 6598857572002110268}
  m_LocalRotation: {x: -0.000000093132286, y: 0.00000001117556, z: -0.000000059604645, w: 1}
  m_LocalPosition: {x: -0.07834072, y: -0.0000005340576, z: -0.000000006626492}
  m_LocalScale: {x: 1, y: 1, z: 1}
  m_Children:
  - {fileID: 6598857572001941240}
  - {fileID: 6598857572001941190}
  - {fileID: 6598857572001941204}
  - {fileID: 6598857572001941202}
  - {fileID: 2126729342990778837}
  m_Father: {fileID: 6598857572001941170}
  m_RootOrder: 0
  m_LocalEulerAnglesHint: {x: 0, y: 0, z: 0}
--- !u!1 &6598857572002110270
GameObject:
  m_ObjectHideFlags: 0
  m_CorrespondingSourceObject: {fileID: 0}
  m_PrefabInstance: {fileID: 0}
  m_PrefabAsset: {fileID: 0}
  serializedVersion: 6
  m_Component:
  - component: {fileID: 6598857572001941214}
  m_Layer: 7
  m_Name: Bone027(mirrored)
  m_TagString: Untagged
  m_Icon: {fileID: 0}
  m_NavMeshLayer: 0
  m_StaticEditorFlags: 0
  m_IsActive: 1
--- !u!4 &6598857572001941214
Transform:
  m_ObjectHideFlags: 0
  m_CorrespondingSourceObject: {fileID: 0}
  m_PrefabInstance: {fileID: 0}
  m_PrefabAsset: {fileID: 0}
  m_GameObject: {fileID: 6598857572002110270}
  m_LocalRotation: {x: -0.000000017229475, y: 0.000000029802322, z: 0.00000018998983, w: 1}
  m_LocalPosition: {x: -0.06023399, y: 0.000000057220458, z: -0.000000028610229}
  m_LocalScale: {x: 1, y: 1, z: 1}
  m_Children: []
  m_Father: {fileID: 6598857572001941202}
  m_RootOrder: 0
  m_LocalEulerAnglesHint: {x: 0, y: 0, z: 0}
--- !u!1001 &1666820099617746816
PrefabInstance:
  m_ObjectHideFlags: 0
  serializedVersion: 2
  m_Modification:
    m_TransformParent: {fileID: 6598857572001941212}
    m_Modifications:
    - target: {fileID: 766198102656806485, guid: e9f9f96f8b88d6048a9413a479549991, type: 3}
      propertyPath: m_RootOrder
      value: 4
      objectReference: {fileID: 0}
    - target: {fileID: 766198102656806485, guid: e9f9f96f8b88d6048a9413a479549991, type: 3}
      propertyPath: m_LocalPosition.x
      value: 0
      objectReference: {fileID: 0}
    - target: {fileID: 766198102656806485, guid: e9f9f96f8b88d6048a9413a479549991, type: 3}
      propertyPath: m_LocalPosition.y
      value: 0
      objectReference: {fileID: 0}
    - target: {fileID: 766198102656806485, guid: e9f9f96f8b88d6048a9413a479549991, type: 3}
      propertyPath: m_LocalPosition.z
      value: 0
      objectReference: {fileID: 0}
    - target: {fileID: 766198102656806485, guid: e9f9f96f8b88d6048a9413a479549991, type: 3}
      propertyPath: m_LocalRotation.w
      value: 1
      objectReference: {fileID: 0}
    - target: {fileID: 766198102656806485, guid: e9f9f96f8b88d6048a9413a479549991, type: 3}
      propertyPath: m_LocalRotation.x
      value: 0
      objectReference: {fileID: 0}
    - target: {fileID: 766198102656806485, guid: e9f9f96f8b88d6048a9413a479549991, type: 3}
      propertyPath: m_LocalRotation.y
      value: 0
      objectReference: {fileID: 0}
    - target: {fileID: 766198102656806485, guid: e9f9f96f8b88d6048a9413a479549991, type: 3}
      propertyPath: m_LocalRotation.z
      value: 0
      objectReference: {fileID: 0}
    - target: {fileID: 766198102656806485, guid: e9f9f96f8b88d6048a9413a479549991, type: 3}
      propertyPath: m_LocalEulerAnglesHint.x
      value: 0
      objectReference: {fileID: 0}
    - target: {fileID: 766198102656806485, guid: e9f9f96f8b88d6048a9413a479549991, type: 3}
      propertyPath: m_LocalEulerAnglesHint.y
      value: 0
      objectReference: {fileID: 0}
    - target: {fileID: 766198102656806485, guid: e9f9f96f8b88d6048a9413a479549991, type: 3}
      propertyPath: m_LocalEulerAnglesHint.z
      value: 0
      objectReference: {fileID: 0}
    - target: {fileID: 4870395077129702886, guid: e9f9f96f8b88d6048a9413a479549991, type: 3}
      propertyPath: m_Name
      value: AttackBox
      objectReference: {fileID: 0}
    - target: {fileID: 4870395077129702886, guid: e9f9f96f8b88d6048a9413a479549991, type: 3}
      propertyPath: m_Layer
      value: 9
      objectReference: {fileID: 0}
    - target: {fileID: 7635032997297237904, guid: e9f9f96f8b88d6048a9413a479549991, type: 3}
      propertyPath: _stats
      value: 
      objectReference: {fileID: 0}
    - target: {fileID: 7635032997297237904, guid: e9f9f96f8b88d6048a9413a479549991, type: 3}
      propertyPath: _attacker
      value: 
      objectReference: {fileID: 11400000, guid: b55df7c21b81f3248bd6710d0aeb569f, type: 2}
    m_RemovedComponents: []
  m_SourcePrefab: {fileID: 100100000, guid: e9f9f96f8b88d6048a9413a479549991, type: 3}
--- !u!4 &2126729342990778837 stripped
Transform:
  m_CorrespondingSourceObject: {fileID: 766198102656806485, guid: e9f9f96f8b88d6048a9413a479549991, type: 3}
  m_PrefabInstance: {fileID: 1666820099617746816}
  m_PrefabAsset: {fileID: 0}
