%YAML 1.1
%TAG !u! tag:unity3d.com,2011:
--- !u!114 &11400000
MonoBehaviour:
  m_ObjectHideFlags: 0
  m_CorrespondingSourceObject: {fileID: 0}
  m_PrefabInstance: {fileID: 0}
  m_PrefabAsset: {fileID: 0}
  m_GameObject: {fileID: 0}
  m_Enabled: 1
  m_EditorHideFlags: 0
  m_Script: {fileID: 11500000, guid: bbb281ee3bf0b054c82ac2347e9e782c, type: 3}
  m_Name: Default Local Group
  m_EditorClassIdentifier: 
  m_GroupName: Default Local Group
  m_Data:
    m_SerializedData: []
  m_GUID: 923e93a4d5b45834d9d726bca74e9365
  m_SerializeEntries: []
  m_ReadOnly: 0
  m_Settings: {fileID: 11400000, guid: 87e5cbd6799d1f344a533e5d43a72e35, type: 2}
  m_SchemaSet:
    m_Schemas:
    - {fileID: 11400000, guid: 46d65ffc662882a4c99d458304909e2c, type: 2}
    - {fileID: 11400000, guid: 7d75273f3ba9b484daad0cf3f3e5b093, type: 2}
