%YAML 1.1
%TAG !u! tag:unity3d.com,2011:
--- !u!114 &11400000
MonoBehaviour:
  m_ObjectHideFlags: 0
  m_CorrespondingSourceObject: {fileID: 0}
  m_PrefabInstance: {fileID: 0}
  m_PrefabAsset: {fileID: 0}
  m_GameObject: {fileID: 0}
  m_Enabled: 1
  m_EditorHideFlags: 0
  m_Script: {fileID: 11500000, guid: bbb281ee3bf0b054c82ac2347e9e782c, type: 3}
  m_Name: Localization-Locales
  m_EditorClassIdentifier: 
  m_GroupName: Localization-Locales
  m_Data:
    m_SerializedData: []
  m_GUID: 363625875b3a4564dbda23b0a960c0d1
  m_SerializeEntries:
  - m_GUID: b89f07cf63325ae4cbfd0085f2e042b8
    m_Address: English (en)
    m_ReadOnly: 1
    m_SerializedLabels:
    - Locale
  - m_GUID: afbb3a361f22fc347a486db7b55b1a84
    m_Address: Portuguese (Brazil) (pt-BR)
    m_ReadOnly: 1
    m_SerializedLabels:
    - Locale
  m_ReadOnly: 1
  m_Settings: {fileID: 11400000, guid: 87e5cbd6799d1f344a533e5d43a72e35, type: 2}
  m_SchemaSet:
    m_Schemas:
    - {fileID: 11400000, guid: e01c70d043f10b94da1499d654b339c3, type: 2}
    - {fileID: 11400000, guid: ff8febe645fb74b4dadb65f20e9e0d30, type: 2}
