%YAML 1.1
%TAG !u! tag:unity3d.com,2011:
--- !u!114 &11400000
MonoBehaviour:
  m_ObjectHideFlags: 0
  m_CorrespondingSourceObject: {fileID: 0}
  m_PrefabInstance: {fileID: 0}
  m_PrefabAsset: {fileID: 0}
  m_GameObject: {fileID: 0}
  m_Enabled: 1
  m_EditorHideFlags: 0
  m_Script: {fileID: 11500000, guid: bbb281ee3bf0b054c82ac2347e9e782c, type: 3}
  m_Name: Localization-Assets-Shared
  m_EditorClassIdentifier: 
  m_GroupName: Localization-Assets-Shared
  m_Data:
    m_SerializedData: []
  m_GUID: 227a49da76b6a704eb5efa684eb79f53
  m_SerializeEntries:
  - m_GUID: 7025cd1d225c9b54bac1599e44091e96
    m_Address: Assets/_Project/Localization/LocalizationStringTable Shared Data.asset
    m_ReadOnly: 1
    m_SerializedLabels: []
  - m_GUID: 0e0febe6907020e4c99f3d3f114dba9a
    m_Address: Assets/_Project/Localization/UIMisc/UI Misc Shared Data.asset
    m_ReadOnly: 1
    m_SerializedLabels: []
  m_ReadOnly: 1
  m_Settings: {fileID: 11400000, guid: 87e5cbd6799d1f344a533e5d43a72e35, type: 2}
  m_SchemaSet:
    m_Schemas:
    - {fileID: 11400000, guid: f244b1291961c424b917fa06603bd4d0, type: 2}
    - {fileID: 11400000, guid: 79ea2583ecd2d6b46a8844157a828fca, type: 2}
