{
    "name": "PlayerInputActions",
    "maps": [
        {
            "name": "Player",
            "id": "be24284b-d83d-4d30-9617-bbaf1636fe99",
            "actions": [
                {
                    "name": "Movement",
                    "type": "PassThrough",
                    "id": "5e9ed472-1575-48e0-ab62-705cfc36a4c5",
                    "expectedControlType": "Vector2",
                    "processors": "",
                    "interactions": ""
                },
                {
                    "name": "Shoot",
                    "type": "Button",
                    "id": "a70d4557-87fa-45b2-9e4a-ebb99b4dd3cb",
                    "expectedControlType": "Button",
                    "processors": "",
                    "interactions": ""
                },
                {
                    "name": "Look",
                    "type": "PassThrough",
                    "id": "c0c58430-27ca-4d1f-ae23-211554602def",
                    "expectedControlType": "Vector2",
                    "processors": "",
                    "interactions": ""
                },
                {
                    "name": "SelectArrow",
                    "type": "Button",
                    "id": "c8708745-4fa2-4da1-bd32-1aa177f74f6f",
                    "expectedControlType": "Button",
                    "processors": "",
                    "interactions": ""
                },
                {
                    "name": "NormalArrow",
                    "type": "Button",
                    "id": "64712d85-eb9b-452d-b16d-2b537d9f907d",
                    "expectedControlType": "Button",
                    "processors": "",
                    "interactions": ""
                },
                {
                    "name": "PiercingArrow",
                    "type": "Button",
                    "id": "85eae362-4bac-43eb-88d3-a2e887154542",
                    "expectedControlType": "Button",
                    "processors": "",
                    "interactions": ""
                },
                {
                    "name": "ExplosiveArrow",
                    "type": "Button",
                    "id": "297d8a48-276c-4500-a17f-e424672878b8",
                    "expectedControlType": "Button",
                    "processors": "",
                    "interactions": ""
                }
            ],
            "bindings": [
                {
                    "name": "WASD",
                    "id": "d30e1230-3145-49d1-b0c5-8f3112ccb376",
                    "path": "2DVector",
                    "interactions": "",
                    "processors": "",
                    "groups": "",
                    "action": "Movement",
                    "isComposite": true,
                    "isPartOfComposite": false
                },
                {
                    "name": "up",
                    "id": "e78665d6-3e9e-41c7-bb87-29431904516e",
                    "path": "<Keyboard>/w",
                    "interactions": "",
                    "processors": "",
                    "groups": "",
                    "action": "Movement",
                    "isComposite": false,
                    "isPartOfComposite": true
                },
                {
                    "name": "down",
                    "id": "6dea6e6f-fb51-4380-9466-bdf92c82b1a5",
                    "path": "<Keyboard>/s",
                    "interactions": "",
                    "processors": "",
                    "groups": "",
                    "action": "Movement",
                    "isComposite": false,
                    "isPartOfComposite": true
                },
                {
                    "name": "left",
                    "id": "61c43fb2-a845-4f38-8476-ff57128a74a8",
                    "path": "<Keyboard>/a",
                    "interactions": "",
                    "processors": "",
                    "groups": "",
                    "action": "Movement",
                    "isComposite": false,
                    "isPartOfComposite": true
                },
                {
                    "name": "right",
                    "id": "131c0981-5c6a-4891-9116-382db5290bf2",
                    "path": "<Keyboard>/d",
                    "interactions": "",
                    "processors": "",
                    "groups": "",
                    "action": "Movement",
                    "isComposite": false,
                    "isPartOfComposite": true
                },
                {
                    "name": "",
                    "id": "cf2e7289-b250-400d-a110-e9681565a9bf",
                    "path": "<Mouse>/leftButton",
                    "interactions": "",
                    "processors": "",
                    "groups": "",
                    "action": "Shoot",
                    "isComposite": false,
                    "isPartOfComposite": false
                },
                {
                    "name": "",
                    "id": "e16556cf-7516-47b5-b8ac-c13c4b900ed0",
                    "path": "<Mouse>/delta",
                    "interactions": "",
                    "processors": "InvertVector2(invertX=false)",
                    "groups": "",
                    "action": "Look",
                    "isComposite": false,
                    "isPartOfComposite": false
                },
                {
                    "name": "",
                    "id": "92a37c82-3b02-4771-88af-0585e760b258",
                    "path": "<Keyboard>/1",
                    "interactions": "",
                    "processors": "",
                    "groups": "",
                    "action": "SelectArrow",
                    "isComposite": false,
                    "isPartOfComposite": false
                },
                {
                    "name": "",
                    "id": "e685e53f-bd32-4df2-bb05-f39aa66ff14b",
                    "path": "<Keyboard>/2",
                    "interactions": "",
                    "processors": "",
                    "groups": "",
                    "action": "SelectArrow",
                    "isComposite": false,
                    "isPartOfComposite": false
                },
                {
                    "name": "",
                    "id": "75ccd84d-7204-4ac9-b88e-96e26aa0348e",
                    "path": "<Keyboard>/3",
                    "interactions": "",
                    "processors": "",
                    "groups": "",
                    "action": "SelectArrow",
                    "isComposite": false,
                    "isPartOfComposite": false
                },
                {
                    "name": "",
                    "id": "63448499-f10c-415a-bea0-7e053fc40633",
                    "path": "<Keyboard>/1",
                    "interactions": "",
                    "processors": "",
                    "groups": "",
                    "action": "NormalArrow",
                    "isComposite": false,
                    "isPartOfComposite": false
                },
                {
                    "name": "",
                    "id": "4a31e62a-1b99-4ae1-917f-f6d7d13927cc",
                    "path": "<Keyboard>/2",
                    "interactions": "",
                    "processors": "",
                    "groups": "",
                    "action": "PiercingArrow",
                    "isComposite": false,
                    "isPartOfComposite": false
                },
                {
                    "name": "",
                    "id": "25d216e7-de9a-41a7-9ac0-001b5857fdb7",
                    "path": "<Keyboard>/3",
                    "interactions": "",
                    "processors": "",
                    "groups": "",
                    "action": "ExplosiveArrow",
                    "isComposite": false,
                    "isPartOfComposite": false
                }
            ]
        },
        {
            "name": "UI",
            "id": "4f9b7ba3-98ed-4acf-9ba0-e682523bbce5",
            "actions": [
                {
                    "name": "Pause",
                    "type": "Button",
                    "id": "aab66d97-16bc-4558-a83a-828473f53e65",
                    "expectedControlType": "Button",
                    "processors": "",
                    "interactions": ""
                },
                {
                    "name": "Left Click",
                    "type": "Button",
                    "id": "a900b821-8f83-4400-b503-f157e1f7bace",
                    "expectedControlType": "Button",
                    "processors": "",
                    "interactions": ""
                }
            ],
            "bindings": [
                {
                    "name": "",
                    "id": "4469fb55-a8b6-4560-b985-d38ed9ff46e9",
                    "path": "<Keyboard>/escape",
                    "interactions": "",
                    "processors": "",
                    "groups": "",
                    "action": "Pause",
                    "isComposite": false,
                    "isPartOfComposite": false
                },
                {
                    "name": "",
                    "id": "36ceb37e-2510-4369-9ff5-92c88ee54e76",
                    "path": "<Mouse>/leftButton",
                    "interactions": "",
                    "processors": "",
                    "groups": "",
                    "action": "Left Click",
                    "isComposite": false,
                    "isPartOfComposite": false
                }
            ]
        }
    ],
    "controlSchemes": []
}