%YAML 1.1
%TAG !u! tag:unity3d.com,2011:
--- !u!114 &11400000
MonoBehaviour:
  m_ObjectHideFlags: 0
  m_CorrespondingSourceObject: {fileID: 0}
  m_PrefabInstance: {fileID: 0}
  m_PrefabAsset: {fileID: 0}
  m_GameObject: {fileID: 0}
  m_Enabled: 1
  m_EditorHideFlags: 0
  m_Script: {fileID: 11500000, guid: 607ad9b729dd5264db76eb891e124c12, type: 3}
  m_Name: HealthPotion
  m_EditorClassIdentifier: 
  _icon: {fileID: 21300000, guid: 117b17facff65dc42b1b57deb7c21551, type: 3}
  _itemType: 3
  _buyPrice: 5
  _sellPrice: 2
